# MagicaVoxel @ Ephtracy

# group
o 

# material
mtllib Bonus.mtl
usemtl palette

# normals
vn -1 0 0
vn 1 0 0
vn 0 0 1
vn 0 0 -1
vn 0 -1 0
vn 0 1 0

# texcoords
vt 0.00195313 0.5
vt 0.431641 0.5
vt 0.482422 0.5

# verts
v -0.4 0.9 2.23517e-008
v -0.4 0.9 -0.1
v -0.4 1.4 2.23517e-008
v -0.4 1.4 -0.1
v -0.3 0.8 2.23517e-008
v -0.3 0.8 -0.1
v -0.3 0.9 2.23517e-008
v -0.3 0.9 -0.1
v -0.3 1.4 2.23517e-008
v -0.3 1.4 -0.1
v -0.3 1.5 2.23517e-008
v -0.3 1.5 -0.1
v -0.2 0.7 2.23517e-008
v -0.2 0.7 -0.1
v -0.2 0.8 2.23517e-008
v -0.2 0.8 -0.1
v -0.2 1.5 2.23517e-008
v -0.2 1.5 -0.1
v -0.2 1.6 2.23517e-008
v -0.2 1.6 -0.1
v 0.2 0.7 2.23517e-008
v 0.2 0.7 -0.1
v 0.2 0.8 2.23517e-008
v 0.2 0.8 -0.1
v 0.2 1.5 2.23517e-008
v 0.2 1.5 -0.1
v 0.2 1.6 2.23517e-008
v 0.2 1.6 -0.1
v 0.3 0.8 2.23517e-008
v 0.3 0.8 -0.1
v 0.3 0.9 2.23517e-008
v 0.3 0.9 -0.1
v 0.3 1.4 2.23517e-008
v 0.3 1.4 -0.1
v 0.3 1.5 2.23517e-008
v 0.3 1.5 -0.1
v 0.4 0.9 2.23517e-008
v 0.4 0.9 -0.1
v 0.4 1.4 2.23517e-008
v 0.4 1.4 -0.1
v -0.4 0.9 2.23517e-008
v -0.4 1.4 2.23517e-008
v -0.3 0.8 2.23517e-008
v -0.3 0.9 2.23517e-008
v -0.3 1.4 2.23517e-008
v -0.3 1.5 2.23517e-008
v -0.2 0.7 2.23517e-008
v -0.2 0.8 2.23517e-008
v -0.2 0.9 2.23517e-008
v -0.2 1 2.23517e-008
v -0.2 1.1 2.23517e-008
v -0.2 1.2 2.23517e-008
v -0.2 1.3 2.23517e-008
v -0.2 1.4 2.23517e-008
v -0.2 1.5 2.23517e-008
v -0.2 1.6 2.23517e-008
v -0.1 0.9 2.23517e-008
v -0.1 1 2.23517e-008
v -0.1 1.1 2.23517e-008
v -0.1 1.2 2.23517e-008
v -0.1 1.3 2.23517e-008
v -0.1 1.4 2.23517e-008
v 0.1 1 2.23517e-008
v 0.1 1.1 2.23517e-008
v 0.1 1.2 2.23517e-008
v 0.1 1.3 2.23517e-008
v 0.2 0.7 2.23517e-008
v 0.2 0.8 2.23517e-008
v 0.2 0.9 2.23517e-008
v 0.2 1.4 2.23517e-008
v 0.2 1.5 2.23517e-008
v 0.2 1.6 2.23517e-008
v 0.3 0.8 2.23517e-008
v 0.3 0.9 2.23517e-008
v 0.3 1.4 2.23517e-008
v 0.3 1.5 2.23517e-008
v 0.4 0.9 2.23517e-008
v 0.4 1.4 2.23517e-008
v -0.4 0.9 -0.1
v -0.4 1.4 -0.1
v -0.3 0.8 -0.1
v -0.3 0.9 -0.1
v -0.3 1.4 -0.1
v -0.3 1.5 -0.1
v -0.2 0.7 -0.1
v -0.2 0.8 -0.1
v -0.2 0.9 -0.1
v -0.2 1 -0.1
v -0.2 1.1 -0.1
v -0.2 1.2 -0.1
v -0.2 1.3 -0.1
v -0.2 1.4 -0.1
v -0.2 1.5 -0.1
v -0.2 1.6 -0.1
v -0.1 0.9 -0.1
v -0.1 1 -0.1
v -0.1 1.1 -0.1
v -0.1 1.2 -0.1
v -0.1 1.3 -0.1
v -0.1 1.4 -0.1
v 0.1 1 -0.1
v 0.1 1.1 -0.1
v 0.1 1.2 -0.1
v 0.1 1.3 -0.1
v 0.2 0.7 -0.1
v 0.2 0.8 -0.1
v 0.2 0.9 -0.1
v 0.2 1.4 -0.1
v 0.2 1.5 -0.1
v 0.2 1.6 -0.1
v 0.3 0.8 -0.1
v 0.3 0.9 -0.1
v 0.3 1.4 -0.1
v 0.3 1.5 -0.1
v 0.4 0.9 -0.1
v 0.4 1.4 -0.1
v -0.2 0.7 2.23517e-008
v 0.2 0.7 2.23517e-008
v -0.2 0.7 -0.1
v 0.2 0.7 -0.1
v -0.3 0.8 2.23517e-008
v -0.2 0.8 2.23517e-008
v 0.2 0.8 2.23517e-008
v 0.3 0.8 2.23517e-008
v -0.3 0.8 -0.1
v -0.2 0.8 -0.1
v 0.2 0.8 -0.1
v 0.3 0.8 -0.1
v -0.4 0.9 2.23517e-008
v -0.3 0.9 2.23517e-008
v 0.3 0.9 2.23517e-008
v 0.4 0.9 2.23517e-008
v -0.4 0.9 -0.1
v -0.3 0.9 -0.1
v 0.3 0.9 -0.1
v 0.4 0.9 -0.1
v -0.4 1.4 2.23517e-008
v -0.3 1.4 2.23517e-008
v 0.3 1.4 2.23517e-008
v 0.4 1.4 2.23517e-008
v -0.4 1.4 -0.1
v -0.3 1.4 -0.1
v 0.3 1.4 -0.1
v 0.4 1.4 -0.1
v -0.3 1.5 2.23517e-008
v -0.2 1.5 2.23517e-008
v 0.2 1.5 2.23517e-008
v 0.3 1.5 2.23517e-008
v -0.3 1.5 -0.1
v -0.2 1.5 -0.1
v 0.2 1.5 -0.1
v 0.3 1.5 -0.1
v -0.2 1.6 2.23517e-008
v 0.2 1.6 2.23517e-008
v -0.2 1.6 -0.1
v 0.2 1.6 -0.1

# faces
f 3/2/1 2/2/1 1/2/1
f 4/2/1 2/2/1 3/2/1
f 7/2/1 6/2/1 5/2/1
f 8/2/1 6/2/1 7/2/1
f 11/2/1 10/2/1 9/2/1
f 12/2/1 10/2/1 11/2/1
f 15/2/1 14/2/1 13/2/1
f 16/2/1 14/2/1 15/2/1
f 19/2/1 18/2/1 17/2/1
f 20/2/1 18/2/1 19/2/1
f 21/2/2 22/2/2 23/2/2
f 23/2/2 22/2/2 24/2/2
f 25/2/2 26/2/2 27/2/2
f 27/2/2 26/2/2 28/2/2
f 29/2/2 30/2/2 31/2/2
f 31/2/2 30/2/2 32/2/2
f 33/2/2 34/2/2 35/2/2
f 35/2/2 34/2/2 36/2/2
f 37/2/2 38/2/2 39/2/2
f 39/2/2 38/2/2 40/2/2
f 44/2/3 42/2/3 41/2/3
f 45/2/3 42/2/3 44/2/3
f 48/2/3 44/2/3 43/2/3
f 49/3/3 45/3/3 44/3/3
f 49/2/3 44/2/3 48/2/3
f 50/3/3 45/3/3 49/3/3
f 51/3/3 45/3/3 50/3/3
f 52/3/3 45/3/3 51/3/3
f 53/3/3 45/3/3 52/3/3
f 54/2/3 46/2/3 45/2/3
f 54/3/3 45/3/3 53/3/3
f 55/2/3 46/2/3 54/2/3
f 57/3/3 49/3/3 48/3/3
f 57/3/3 50/3/3 49/3/3
f 58/1/3 51/1/3 50/1/3
f 58/3/3 50/3/3 57/3/3
f 59/3/3 52/3/3 51/3/3
f 59/1/3 51/1/3 58/1/3
f 60/1/3 53/1/3 52/1/3
f 60/3/3 52/3/3 59/3/3
f 61/3/3 55/3/3 54/3/3
f 61/1/3 53/1/3 60/1/3
f 61/3/3 54/3/3 53/3/3
f 62/3/3 55/3/3 61/3/3
f 63/3/3 59/3/3 58/3/3
f 63/1/3 58/1/3 57/1/3
f 64/1/3 60/1/3 59/1/3
f 64/3/3 59/3/3 63/3/3
f 65/3/3 61/3/3 60/3/3
f 65/1/3 60/1/3 64/1/3
f 66/1/3 62/1/3 61/1/3
f 66/3/3 61/3/3 65/3/3
f 67/2/3 48/2/3 47/2/3
f 68/3/3 57/3/3 48/3/3
f 68/2/3 48/2/3 67/2/3
f 69/1/3 63/1/3 57/1/3
f 69/3/3 57/3/3 68/3/3
f 69/1/3 65/1/3 64/1/3
f 69/1/3 66/1/3 65/1/3
f 69/1/3 64/1/3 63/1/3
f 70/3/3 55/3/3 62/3/3
f 70/1/3 66/1/3 69/1/3
f 70/1/3 62/1/3 66/1/3
f 71/2/3 56/2/3 55/2/3
f 71/3/3 55/3/3 70/3/3
f 72/2/3 56/2/3 71/2/3
f 73/2/3 69/2/3 68/2/3
f 74/3/3 70/3/3 69/3/3
f 74/2/3 69/2/3 73/2/3
f 75/2/3 71/2/3 70/2/3
f 75/3/3 70/3/3 74/3/3
f 76/2/3 71/2/3 75/2/3
f 77/2/3 75/2/3 74/2/3
f 78/2/3 75/2/3 77/2/3
f 79/2/4 80/2/4 82/2/4
f 82/2/4 80/2/4 83/2/4
f 81/2/4 82/2/4 86/2/4
f 82/3/4 83/3/4 87/3/4
f 86/2/4 82/2/4 87/2/4
f 87/3/4 83/3/4 88/3/4
f 88/3/4 83/3/4 89/3/4
f 89/3/4 83/3/4 90/3/4
f 90/3/4 83/3/4 91/3/4
f 83/2/4 84/2/4 92/2/4
f 91/3/4 83/3/4 92/3/4
f 92/2/4 84/2/4 93/2/4
f 86/3/4 87/3/4 95/3/4
f 87/3/4 88/3/4 95/3/4
f 88/1/4 89/1/4 96/1/4
f 95/3/4 88/3/4 96/3/4
f 89/3/4 90/3/4 97/3/4
f 96/1/4 89/1/4 97/1/4
f 90/1/4 91/1/4 98/1/4
f 97/3/4 90/3/4 98/3/4
f 92/3/4 93/3/4 99/3/4
f 98/1/4 91/1/4 99/1/4
f 91/3/4 92/3/4 99/3/4
f 99/3/4 93/3/4 100/3/4
f 96/3/4 97/3/4 101/3/4
f 95/1/4 96/1/4 101/1/4
f 97/1/4 98/1/4 102/1/4
f 101/3/4 97/3/4 102/3/4
f 98/3/4 99/3/4 103/3/4
f 102/1/4 98/1/4 103/1/4
f 99/1/4 100/1/4 104/1/4
f 103/3/4 99/3/4 104/3/4
f 85/2/4 86/2/4 105/2/4
f 86/3/4 95/3/4 106/3/4
f 105/2/4 86/2/4 106/2/4
f 95/1/4 101/1/4 107/1/4
f 106/3/4 95/3/4 107/3/4
f 102/1/4 103/1/4 107/1/4
f 103/1/4 104/1/4 107/1/4
f 101/1/4 102/1/4 107/1/4
f 100/3/4 93/3/4 108/3/4
f 107/1/4 104/1/4 108/1/4
f 104/1/4 100/1/4 108/1/4
f 93/2/4 94/2/4 109/2/4
f 108/3/4 93/3/4 109/3/4
f 109/2/4 94/2/4 110/2/4
f 106/2/4 107/2/4 111/2/4
f 107/3/4 108/3/4 112/3/4
f 111/2/4 107/2/4 112/2/4
f 108/2/4 109/2/4 113/2/4
f 112/3/4 108/3/4 113/3/4
f 113/2/4 109/2/4 114/2/4
f 112/2/4 113/2/4 115/2/4
f 115/2/4 113/2/4 116/2/4
f 119/2/5 118/2/5 117/2/5
f 120/2/5 118/2/5 119/2/5
f 125/2/5 122/2/5 121/2/5
f 126/2/5 122/2/5 125/2/5
f 127/2/5 124/2/5 123/2/5
f 128/2/5 124/2/5 127/2/5
f 133/2/5 130/2/5 129/2/5
f 134/2/5 130/2/5 133/2/5
f 135/2/5 132/2/5 131/2/5
f 136/2/5 132/2/5 135/2/5
f 137/2/6 138/2/6 141/2/6
f 141/2/6 138/2/6 142/2/6
f 139/2/6 140/2/6 143/2/6
f 143/2/6 140/2/6 144/2/6
f 145/2/6 146/2/6 149/2/6
f 149/2/6 146/2/6 150/2/6
f 147/2/6 148/2/6 151/2/6
f 151/2/6 148/2/6 152/2/6
f 153/2/6 154/2/6 155/2/6
f 155/2/6 154/2/6 156/2/6
