# MagicaVoxel @ Ephtracy

# group
o 

# material
mtllib Life.mtl
usemtl palette

# normals
vn -1 0 0
vn 1 0 0
vn 0 0 1
vn 0 0 -1
vn 0 -1 0
vn 0 1 0

# texcoords
vt 0.00195313 0.5
vt 0.966797 0.5
vt 0.990234 0.5

# verts
v -0.4 0.7 2.23517e-008
v -0.4 0.7 -0.1
v -0.4 1.6 2.23517e-008
v -0.4 1.6 -0.1
v 0.4 0.7 2.23517e-008
v 0.4 0.7 -0.1
v 0.4 1.6 2.23517e-008
v 0.4 1.6 -0.1
v -0.4 0.7 2.23517e-008
v -0.4 1.6 2.23517e-008
v -0.3 0.8 2.23517e-008
v -0.3 1.5 2.23517e-008
v -0.2 0.9 2.23517e-008
v -0.2 1 2.23517e-008
v 0.1 1 2.23517e-008
v 0.1 1.4 2.23517e-008
v 0.2 0.9 2.23517e-008
v 0.2 1.4 2.23517e-008
v 0.3 0.8 2.23517e-008
v 0.3 1.5 2.23517e-008
v 0.4 0.7 2.23517e-008
v 0.4 1.6 2.23517e-008
v -0.4 0.7 -0.1
v -0.4 1.6 -0.1
v -0.3 0.8 -0.1
v -0.3 1.5 -0.1
v -0.2 0.9 -0.1
v -0.2 1 -0.1
v 0.1 1 -0.1
v 0.1 1.4 -0.1
v 0.2 0.9 -0.1
v 0.2 1.4 -0.1
v 0.3 0.8 -0.1
v 0.3 1.5 -0.1
v 0.4 0.7 -0.1
v 0.4 1.6 -0.1
v -0.4 0.7 2.23517e-008
v 0.4 0.7 2.23517e-008
v -0.4 0.7 -0.1
v 0.4 0.7 -0.1
v -0.4 1.6 2.23517e-008
v 0.4 1.6 2.23517e-008
v -0.4 1.6 -0.1
v 0.4 1.6 -0.1

# faces
f 3/2/1 2/2/1 1/2/1
f 4/2/1 2/2/1 3/2/1
f 5/2/2 6/2/2 7/2/2
f 7/2/2 6/2/2 8/2/2
f 11/2/3 10/2/3 9/2/3
f 12/2/3 10/2/3 11/2/3
f 13/1/3 12/1/3 11/1/3
f 14/1/3 12/1/3 13/1/3
f 15/3/3 14/3/3 13/3/3
f 15/1/3 12/1/3 14/1/3
f 16/1/3 12/1/3 15/1/3
f 17/1/3 13/1/3 11/1/3
f 17/3/3 15/3/3 13/3/3
f 17/3/3 16/3/3 15/3/3
f 18/1/3 12/1/3 16/1/3
f 18/3/3 16/3/3 17/3/3
f 19/2/3 11/2/3 9/2/3
f 19/1/3 17/1/3 11/1/3
f 19/1/3 18/1/3 17/1/3
f 20/1/3 12/1/3 18/1/3
f 20/1/3 18/1/3 19/1/3
f 20/2/3 10/2/3 12/2/3
f 21/2/3 19/2/3 9/2/3
f 21/2/3 20/2/3 19/2/3
f 22/2/3 10/2/3 20/2/3
f 22/2/3 20/2/3 21/2/3
f 23/2/4 24/2/4 25/2/4
f 25/2/4 24/2/4 26/2/4
f 25/1/4 26/1/4 27/1/4
f 27/1/4 26/1/4 28/1/4
f 27/3/4 28/3/4 29/3/4
f 28/1/4 26/1/4 29/1/4
f 29/1/4 26/1/4 30/1/4
f 25/1/4 27/1/4 31/1/4
f 27/3/4 29/3/4 31/3/4
f 29/3/4 30/3/4 31/3/4
f 30/1/4 26/1/4 32/1/4
f 31/3/4 30/3/4 32/3/4
f 23/2/4 25/2/4 33/2/4
f 25/1/4 31/1/4 33/1/4
f 31/1/4 32/1/4 33/1/4
f 32/1/4 26/1/4 34/1/4
f 33/1/4 32/1/4 34/1/4
f 26/2/4 24/2/4 34/2/4
f 23/2/4 33/2/4 35/2/4
f 33/2/4 34/2/4 35/2/4
f 34/2/4 24/2/4 36/2/4
f 35/2/4 34/2/4 36/2/4
f 39/2/5 38/2/5 37/2/5
f 40/2/5 38/2/5 39/2/5
f 41/2/6 42/2/6 43/2/6
f 43/2/6 42/2/6 44/2/6
