# MagicaVoxel @ Ephtracy

# group
o 

# material
mtllib Speed Down.mtl
usemtl palette

# normals
vn -1 0 0
vn 1 0 0
vn 0 0 1
vn 0 0 -1
vn 0 -1 0
vn 0 1 0

# texcoords
vt 0.00195313 0.5
vt 0.115234 0.5
vt 0.138672 0.5

# verts
v -0.4 0.7 2.23517e-008
v -0.4 0.7 -0.1
v -0.4 1.6 2.23517e-008
v -0.4 1.6 -0.1
v 0.4 0.7 2.23517e-008
v 0.4 0.7 -0.1
v 0.4 1.6 2.23517e-008
v 0.4 1.6 -0.1
v -0.4 0.7 2.23517e-008
v -0.4 1.6 2.23517e-008
v -0.3 0.8 2.23517e-008
v -0.3 1.5 2.23517e-008
v -0.2 1 2.23517e-008
v -0.2 1.3 2.23517e-008
v -0.1 0.9 2.23517e-008
v -0.1 1 2.23517e-008
v -0.1 1.3 2.23517e-008
v -0.1 1.4 2.23517e-008
v 0.1 1 2.23517e-008
v 0.1 1.3 2.23517e-008
v 0.2 0.9 2.23517e-008
v 0.2 1.4 2.23517e-008
v 0.3 0.8 2.23517e-008
v 0.3 1.5 2.23517e-008
v 0.4 0.7 2.23517e-008
v 0.4 1.6 2.23517e-008
v -0.4 0.7 -0.1
v -0.4 1.6 -0.1
v -0.3 0.8 -0.1
v -0.3 1.5 -0.1
v -0.2 1 -0.1
v -0.2 1.3 -0.1
v -0.1 0.9 -0.1
v -0.1 1 -0.1
v -0.1 1.3 -0.1
v -0.1 1.4 -0.1
v 0.1 1 -0.1
v 0.1 1.3 -0.1
v 0.2 0.9 -0.1
v 0.2 1.4 -0.1
v 0.3 0.8 -0.1
v 0.3 1.5 -0.1
v 0.4 0.7 -0.1
v 0.4 1.6 -0.1
v -0.4 0.7 2.23517e-008
v 0.4 0.7 2.23517e-008
v -0.4 0.7 -0.1
v 0.4 0.7 -0.1
v -0.4 1.6 2.23517e-008
v 0.4 1.6 2.23517e-008
v -0.4 1.6 -0.1
v 0.4 1.6 -0.1

# faces
f 3/2/1 2/2/1 1/2/1
f 4/2/1 2/2/1 3/2/1
f 5/2/2 6/2/2 7/2/2
f 7/2/2 6/2/2 8/2/2
f 11/2/3 10/2/3 9/2/3
f 12/2/3 10/2/3 11/2/3
f 13/3/3 12/3/3 11/3/3
f 14/3/3 12/3/3 13/3/3
f 15/3/3 13/3/3 11/3/3
f 16/1/3 14/1/3 13/1/3
f 16/3/3 13/3/3 15/3/3
f 17/3/3 12/3/3 14/3/3
f 17/1/3 14/1/3 16/1/3
f 18/3/3 12/3/3 17/3/3
f 19/1/3 16/1/3 15/1/3
f 19/3/3 17/3/3 16/3/3
f 20/1/3 18/1/3 17/1/3
f 20/3/3 17/3/3 19/3/3
f 21/3/3 15/3/3 11/3/3
f 21/1/3 19/1/3 15/1/3
f 21/1/3 20/1/3 19/1/3
f 22/3/3 12/3/3 18/3/3
f 22/1/3 20/1/3 21/1/3
f 22/1/3 18/1/3 20/1/3
f 23/2/3 11/2/3 9/2/3
f 23/3/3 21/3/3 11/3/3
f 23/3/3 22/3/3 21/3/3
f 24/3/3 12/3/3 22/3/3
f 24/3/3 22/3/3 23/3/3
f 24/2/3 10/2/3 12/2/3
f 25/2/3 23/2/3 9/2/3
f 25/2/3 24/2/3 23/2/3
f 26/2/3 10/2/3 24/2/3
f 26/2/3 24/2/3 25/2/3
f 27/2/4 28/2/4 29/2/4
f 29/2/4 28/2/4 30/2/4
f 29/3/4 30/3/4 31/3/4
f 31/3/4 30/3/4 32/3/4
f 29/3/4 31/3/4 33/3/4
f 31/1/4 32/1/4 34/1/4
f 33/3/4 31/3/4 34/3/4
f 32/3/4 30/3/4 35/3/4
f 34/1/4 32/1/4 35/1/4
f 35/3/4 30/3/4 36/3/4
f 33/1/4 34/1/4 37/1/4
f 34/3/4 35/3/4 37/3/4
f 35/1/4 36/1/4 38/1/4
f 37/3/4 35/3/4 38/3/4
f 29/3/4 33/3/4 39/3/4
f 33/1/4 37/1/4 39/1/4
f 37/1/4 38/1/4 39/1/4
f 36/3/4 30/3/4 40/3/4
f 39/1/4 38/1/4 40/1/4
f 38/1/4 36/1/4 40/1/4
f 27/2/4 29/2/4 41/2/4
f 29/3/4 39/3/4 41/3/4
f 39/3/4 40/3/4 41/3/4
f 40/3/4 30/3/4 42/3/4
f 41/3/4 40/3/4 42/3/4
f 30/2/4 28/2/4 42/2/4
f 27/2/4 41/2/4 43/2/4
f 41/2/4 42/2/4 43/2/4
f 42/2/4 28/2/4 44/2/4
f 43/2/4 42/2/4 44/2/4
f 47/2/5 46/2/5 45/2/5
f 48/2/5 46/2/5 47/2/5
f 49/2/6 50/2/6 51/2/6
f 51/2/6 50/2/6 52/2/6
