# MagicaVoxel @ Ephtracy

# group
o 

# material
mtllib Desert Rock 1.mtl
usemtl palette

# normals
vn -1 0 0
vn 1 0 0
vn 0 0 1
vn 0 0 -1
vn 0 -1 0
vn 0 1 0

# texcoords
vt 0.486328 0.5
vt 0.916016 0.5
vt 0.958984 0.5
vt 0.962891 0.5

# verts
v -0.3 0 -0.1
v -0.3 0 -0.2
v -0.3 0.1 -0.1
v -0.3 0.1 -0.2
v -0.2 0 -1.49012e-008
v -0.2 0 -0.1
v -0.2 0 -0.2
v -0.2 0 -0.3
v -0.2 0.1 -1.49012e-008
v -0.2 0.1 -0.1
v -0.2 0.1 -0.2
v -0.2 0.1 -0.3
v -0.2 0.2 -1.49012e-008
v -0.2 0.2 -0.1
v -0.1 0 0.1
v -0.1 0 -1.49012e-008
v -0.1 0.1 0.1
v -0.1 0.1 -1.49012e-008
v -0.1 0.1 -0.1
v -0.1 0.1 -0.2
v -0.1 0.2 -1.49012e-008
v -0.1 0.2 -0.1
v -0.1 0.2 -0.2
v -0.1 0.3 -1.49012e-008
v -0.1 0.3 -0.1
v -0.1 0 -0.2
v -0.1 0 -0.3
v -0.1 0.1 -0.2
v -0.1 0.1 -0.3
v 0 0.1 -0.1
v 0 0.1 -0.2
v 0 0.2 -1.49012e-008
v 0 0.2 -0.1
v 0 0.2 -0.2
v 0 0.3 -1.49012e-008
v 0 0.3 -0.1
v 0.1 0 0.1
v 0.1 0 -1.49012e-008
v 0.1 0 -0.1
v 0.1 0 -0.2
v 0.1 0.1 0.1
v 0.1 0.1 -1.49012e-008
v 0.1 0.1 -0.1
v 0.1 0.1 -0.2
v 0.1 0.2 -1.49012e-008
v 0.1 0.2 -0.1
v 0.2 0 -1.49012e-008
v 0.2 0 -0.1
v 0.2 0.1 -1.49012e-008
v 0.2 0.1 -0.1
v -0.1 0 0.1
v -0.1 0.1 0.1
v 0.1 0 0.1
v 0.1 0.1 0.1
v -0.2 0 -1.49012e-008
v -0.2 0.1 -1.49012e-008
v -0.2 0.2 -1.49012e-008
v -0.1 0 -1.49012e-008
v -0.1 0.1 -1.49012e-008
v -0.1 0.2 -1.49012e-008
v -0.1 0.3 -1.49012e-008
v 0 0.2 -1.49012e-008
v 0 0.3 -1.49012e-008
v 0.1 0 -1.49012e-008
v 0.1 0.1 -1.49012e-008
v 0.1 0.2 -1.49012e-008
v 0.2 0 -1.49012e-008
v 0.2 0.1 -1.49012e-008
v -0.3 0 -0.1
v -0.3 0.1 -0.1
v -0.2 0 -0.1
v -0.2 0.1 -0.1
v -0.2 0.1 -0.1
v -0.2 0.2 -0.1
v -0.1 0.1 -0.1
v -0.1 0.2 -0.1
v -0.1 0.3 -0.1
v 0 0.1 -0.1
v 0 0.2 -0.1
v 0 0.3 -0.1
v 0.1 0 -0.1
v 0.1 0.1 -0.1
v 0.1 0.2 -0.1
v 0.2 0 -0.1
v 0.2 0.1 -0.1
v -0.3 0 -0.2
v -0.3 0.1 -0.2
v -0.2 0 -0.2
v -0.2 0.1 -0.2
v -0.1 0 -0.2
v -0.1 0.1 -0.2
v -0.1 0.2 -0.2
v 0 0.1 -0.2
v 0 0.2 -0.2
v 0.1 0 -0.2
v 0.1 0.1 -0.2
v -0.2 0 -0.3
v -0.2 0.1 -0.3
v -0.1 0 -0.3
v -0.1 0.1 -0.3
v -0.1 0 0.1
v 0.1 0 0.1
v -0.2 0 -1.49012e-008
v -0.1 0 -1.49012e-008
v 0.1 0 -1.49012e-008
v 0.2 0 -1.49012e-008
v -0.3 0 -0.1
v -0.2 0 -0.1
v 0.1 0 -0.1
v 0.2 0 -0.1
v -0.3 0 -0.2
v -0.2 0 -0.2
v -0.1 0 -0.2
v 0.1 0 -0.2
v -0.2 0 -0.3
v -0.1 0 -0.3
v -0.1 0.1 0.1
v 0.1 0.1 0.1
v -0.1 0.1 -1.49012e-008
v 0.1 0.1 -1.49012e-008
v 0.2 0.1 -1.49012e-008
v -0.3 0.1 -0.1
v -0.2 0.1 -0.1
v -0.1 0.1 -0.1
v 0 0.1 -0.1
v 0.1 0.1 -0.1
v 0.2 0.1 -0.1
v -0.3 0.1 -0.2
v -0.2 0.1 -0.2
v -0.1 0.1 -0.2
v 0 0.1 -0.2
v 0.1 0.1 -0.2
v -0.2 0.1 -0.3
v -0.1 0.1 -0.3
v -0.2 0.2 -1.49012e-008
v -0.1 0.2 -1.49012e-008
v 0 0.2 -1.49012e-008
v 0.1 0.2 -1.49012e-008
v -0.2 0.2 -0.1
v -0.1 0.2 -0.1
v 0 0.2 -0.1
v 0.1 0.2 -0.1
v -0.1 0.2 -0.2
v 0 0.2 -0.2
v -0.1 0.3 -1.49012e-008
v 0 0.3 -1.49012e-008
v -0.1 0.3 -0.1
v 0 0.3 -0.1

# faces
f 3/1/1 2/1/1 1/1/1
f 4/1/1 2/1/1 3/1/1
f 9/1/1 6/1/1 5/1/1
f 10/1/1 6/1/1 9/1/1
f 11/1/1 8/1/1 7/1/1
f 12/1/1 8/1/1 11/1/1
f 13/3/1 10/3/1 9/3/1
f 14/3/1 10/3/1 13/3/1
f 17/1/1 16/1/1 15/1/1
f 18/1/1 16/1/1 17/1/1
f 22/4/1 20/4/1 19/4/1
f 23/4/1 20/4/1 22/4/1
f 24/2/1 22/2/1 21/2/1
f 25/2/1 22/2/1 24/2/1
f 26/1/2 27/1/2 28/1/2
f 28/1/2 27/1/2 29/1/2
f 30/4/2 31/4/2 33/4/2
f 33/4/2 31/4/2 34/4/2
f 32/2/2 33/2/2 35/2/2
f 35/2/2 33/2/2 36/2/2
f 37/1/2 38/1/2 41/1/2
f 41/1/2 38/1/2 42/1/2
f 39/1/2 40/1/2 43/1/2
f 43/1/2 40/1/2 44/1/2
f 42/4/2 43/4/2 45/4/2
f 45/4/2 43/4/2 46/4/2
f 47/1/2 48/1/2 49/1/2
f 49/1/2 48/1/2 50/1/2
f 53/1/3 52/1/3 51/1/3
f 54/1/3 52/1/3 53/1/3
f 58/1/3 56/1/3 55/1/3
f 59/3/3 57/3/3 56/3/3
f 59/1/3 56/1/3 58/1/3
f 60/3/3 57/3/3 59/3/3
f 62/2/3 61/2/3 60/2/3
f 62/4/3 60/4/3 59/4/3
f 63/2/3 61/2/3 62/2/3
f 65/4/3 62/4/3 59/4/3
f 66/4/3 62/4/3 65/4/3
f 67/1/3 65/1/3 64/1/3
f 68/1/3 65/1/3 67/1/3
f 71/1/3 70/1/3 69/1/3
f 72/1/3 70/1/3 71/1/3
f 73/3/4 74/3/4 75/3/4
f 75/3/4 74/3/4 76/3/4
f 76/2/4 77/2/4 79/2/4
f 79/2/4 77/2/4 80/2/4
f 78/4/4 79/4/4 82/4/4
f 82/4/4 79/4/4 83/4/4
f 81/1/4 82/1/4 84/1/4
f 84/1/4 82/1/4 85/1/4
f 86/1/4 87/1/4 88/1/4
f 88/1/4 87/1/4 89/1/4
f 90/1/4 91/1/4 93/1/4
f 91/4/4 92/4/4 93/4/4
f 93/4/4 92/4/4 94/4/4
f 90/1/4 93/1/4 95/1/4
f 95/1/4 93/1/4 96/1/4
f 97/1/4 98/1/4 99/1/4
f 99/1/4 98/1/4 100/1/4
f 104/1/5 102/1/5 101/1/5
f 105/1/5 102/1/5 104/1/5
f 108/1/5 104/1/5 103/1/5
f 108/1/5 106/1/5 105/1/5
f 108/1/5 105/1/5 104/1/5
f 109/1/5 106/1/5 108/1/5
f 110/1/5 106/1/5 109/1/5
f 111/1/5 108/1/5 107/1/5
f 111/1/5 109/1/5 108/1/5
f 112/1/5 109/1/5 111/1/5
f 113/1/5 109/1/5 112/1/5
f 114/1/5 109/1/5 113/1/5
f 115/1/5 113/1/5 112/1/5
f 116/1/5 113/1/5 115/1/5
f 117/1/6 118/1/6 119/1/6
f 119/1/6 118/1/6 120/1/6
f 120/1/6 121/1/6 126/1/6
f 126/1/6 121/1/6 127/1/6
f 123/1/6 124/1/6 128/1/6
f 122/1/6 123/1/6 128/1/6
f 128/1/6 124/1/6 129/1/6
f 129/1/6 124/1/6 130/1/6
f 125/1/6 126/1/6 131/1/6
f 131/1/6 126/1/6 132/1/6
f 129/1/6 130/1/6 133/1/6
f 133/1/6 130/1/6 134/1/6
f 135/3/6 136/3/6 139/3/6
f 139/3/6 136/3/6 140/3/6
f 137/4/6 138/4/6 141/4/6
f 141/4/6 138/4/6 142/4/6
f 140/4/6 141/4/6 143/4/6
f 143/4/6 141/4/6 144/4/6
f 145/2/6 146/2/6 147/2/6
f 147/2/6 146/2/6 148/2/6
