# MagicaVoxel @ Ephtracy

# group
o 

# material
mtllib Enemy Black Drone.mtl
usemtl palette

# normals
vn -1 0 0
vn 1 0 0
vn 0 0 1
vn 0 0 -1
vn 0 -1 0
vn 0 1 0

# texcoords
vt 0.0644531 0.5
vt 0.958984 0.5
vt 0.982422 0.5
vt 0.990234 0.5

# verts
v -0.2 0.1 0.2
v -0.2 0.1 -0.2
v -0.2 0.2 0.2
v -0.2 0.2 0.1
v -0.2 0.2 0
v -0.2 0.2 -0.1
v -0.2 0.2 -0.2
v -0.2 0.3 0.2
v -0.2 0.3 0.1
v -0.2 0.3 0
v -0.2 0.3 -0.1
v -0.2 0.3 -0.2
v -0.2 0.4 0.2
v -0.2 0.4 -0.2
v -0.1 0 0.1
v -0.1 0 -0.1
v -0.1 0.1 0.1
v -0.1 0.1 -0.1
v -0.1 0.4 0.1
v -0.1 0.4 -0.1
v -0.1 0.5 0.1
v -0.1 0.5 -0.1
v 0.1 0 0.1
v 0.1 0 -0.1
v 0.1 0.1 0.1
v 0.1 0.1 -0.1
v 0.1 0.4 0.1
v 0.1 0.4 -0.1
v 0.1 0.5 0.1
v 0.1 0.5 -0.1
v 0.2 0.1 0.2
v 0.2 0.1 -0.2
v 0.2 0.2 0.2
v 0.2 0.2 0.1
v 0.2 0.2 0
v 0.2 0.2 -0.1
v 0.2 0.2 -0.2
v 0.2 0.3 0.2
v 0.2 0.3 0.1
v 0.2 0.3 0
v 0.2 0.3 -0.1
v 0.2 0.3 -0.2
v 0.2 0.4 0.2
v 0.2 0.4 -0.2
v -0.2 0.1 0.2
v -0.2 0.2 0.2
v -0.2 0.3 0.2
v -0.2 0.4 0.2
v -0.1 0.2 0.2
v -0.1 0.3 0.2
v 0 0.2 0.2
v 0 0.3 0.2
v 0.1 0.2 0.2
v 0.1 0.3 0.2
v 0.2 0.1 0.2
v 0.2 0.2 0.2
v 0.2 0.3 0.2
v 0.2 0.4 0.2
v -0.1 0 0.1
v -0.1 0.1 0.1
v -0.1 0.4 0.1
v -0.1 0.5 0.1
v 0.1 0 0.1
v 0.1 0.1 0.1
v 0.1 0.4 0.1
v 0.1 0.5 0.1
v -0.1 0 -0.1
v -0.1 0.1 -0.1
v -0.1 0.4 -0.1
v -0.1 0.5 -0.1
v 0.1 0 -0.1
v 0.1 0.1 -0.1
v 0.1 0.4 -0.1
v 0.1 0.5 -0.1
v -0.2 0.1 -0.2
v -0.2 0.2 -0.2
v -0.2 0.3 -0.2
v -0.2 0.4 -0.2
v -0.1 0.2 -0.2
v -0.1 0.3 -0.2
v 0 0.2 -0.2
v 0 0.3 -0.2
v 0.1 0.2 -0.2
v 0.1 0.3 -0.2
v 0.2 0.1 -0.2
v 0.2 0.2 -0.2
v 0.2 0.3 -0.2
v 0.2 0.4 -0.2
v -0.1 0 0.1
v 0.1 0 0.1
v -0.1 0 -0.1
v 0.1 0 -0.1
v -0.2 0.1 0.2
v 0.2 0.1 0.2
v -0.1 0.1 0.1
v 0.1 0.1 0.1
v -0.1 0.1 -0.1
v 0.1 0.1 -0.1
v -0.2 0.1 -0.2
v 0.2 0.1 -0.2
v -0.2 0.4 0.2
v 0.2 0.4 0.2
v -0.1 0.4 0.1
v 0.1 0.4 0.1
v -0.1 0.4 -0.1
v 0.1 0.4 -0.1
v -0.2 0.4 -0.2
v 0.2 0.4 -0.2
v -0.1 0.5 0.1
v 0.1 0.5 0.1
v -0.1 0.5 -0.1
v 0.1 0.5 -0.1

# faces
f 3/2/1 2/2/1 1/2/1
f 4/2/1 2/2/1 3/2/1
f 5/2/1 2/2/1 4/2/1
f 6/2/1 2/2/1 5/2/1
f 7/2/1 2/2/1 6/2/1
f 8/3/1 4/3/1 3/3/1
f 9/1/1 5/1/1 4/1/1
f 9/3/1 4/3/1 8/3/1
f 10/3/1 6/3/1 5/3/1
f 10/1/1 5/1/1 9/1/1
f 11/1/1 7/1/1 6/1/1
f 11/3/1 6/3/1 10/3/1
f 12/1/1 7/1/1 11/1/1
f 13/4/1 9/4/1 8/4/1
f 13/4/1 10/4/1 9/4/1
f 13/4/1 12/4/1 11/4/1
f 13/4/1 11/4/1 10/4/1
f 14/4/1 12/4/1 13/4/1
f 17/2/1 16/2/1 15/2/1
f 18/2/1 16/2/1 17/2/1
f 21/4/1 20/4/1 19/4/1
f 22/4/1 20/4/1 21/4/1
f 23/2/2 24/2/2 25/2/2
f 25/2/2 24/2/2 26/2/2
f 27/4/2 28/4/2 29/4/2
f 29/4/2 28/4/2 30/4/2
f 31/2/2 32/2/2 33/2/2
f 33/2/2 32/2/2 34/2/2
f 34/2/2 32/2/2 35/2/2
f 35/2/2 32/2/2 36/2/2
f 36/2/2 32/2/2 37/2/2
f 33/1/2 34/1/2 38/1/2
f 34/3/2 35/3/2 39/3/2
f 38/1/2 34/1/2 39/1/2
f 35/1/2 36/1/2 40/1/2
f 39/3/2 35/3/2 40/3/2
f 36/3/2 37/3/2 41/3/2
f 40/1/2 36/1/2 41/1/2
f 41/3/2 37/3/2 42/3/2
f 38/4/2 39/4/2 43/4/2
f 39/4/2 40/4/2 43/4/2
f 41/4/2 42/4/2 43/4/2
f 40/4/2 41/4/2 43/4/2
f 43/4/2 42/4/2 44/4/2
f 49/2/3 46/2/3 45/2/3
f 49/3/3 47/3/3 46/3/3
f 50/4/3 48/4/3 47/4/3
f 50/3/3 47/3/3 49/3/3
f 51/2/3 49/2/3 45/2/3
f 51/1/3 50/1/3 49/1/3
f 52/4/3 48/4/3 50/4/3
f 52/1/3 50/1/3 51/1/3
f 53/2/3 51/2/3 45/2/3
f 53/3/3 52/3/3 51/3/3
f 54/4/3 48/4/3 52/4/3
f 54/3/3 52/3/3 53/3/3
f 55/2/3 53/2/3 45/2/3
f 56/1/3 54/1/3 53/1/3
f 56/2/3 53/2/3 55/2/3
f 57/4/3 48/4/3 54/4/3
f 57/1/3 54/1/3 56/1/3
f 58/4/3 48/4/3 57/4/3
f 63/2/3 60/2/3 59/2/3
f 64/2/3 60/2/3 63/2/3
f 65/4/3 62/4/3 61/4/3
f 66/4/3 62/4/3 65/4/3
f 67/2/4 68/2/4 71/2/4
f 71/2/4 68/2/4 72/2/4
f 69/4/4 70/4/4 73/4/4
f 73/4/4 70/4/4 74/4/4
f 75/2/4 76/2/4 79/2/4
f 76/1/4 77/1/4 79/1/4
f 77/4/4 78/4/4 80/4/4
f 79/1/4 77/1/4 80/1/4
f 75/2/4 79/2/4 81/2/4
f 79/3/4 80/3/4 81/3/4
f 80/4/4 78/4/4 82/4/4
f 81/3/4 80/3/4 82/3/4
f 75/2/4 81/2/4 83/2/4
f 81/1/4 82/1/4 83/1/4
f 82/4/4 78/4/4 84/4/4
f 83/1/4 82/1/4 84/1/4
f 75/2/4 83/2/4 85/2/4
f 83/3/4 84/3/4 86/3/4
f 85/2/4 83/2/4 86/2/4
f 84/4/4 78/4/4 87/4/4
f 86/3/4 84/3/4 87/3/4
f 87/4/4 78/4/4 88/4/4
f 91/2/5 90/2/5 89/2/5
f 92/2/5 90/2/5 91/2/5
f 95/2/5 94/2/5 93/2/5
f 96/2/5 94/2/5 95/2/5
f 97/2/5 95/2/5 93/2/5
f 98/2/5 94/2/5 96/2/5
f 99/2/5 97/2/5 93/2/5
f 99/2/5 98/2/5 97/2/5
f 100/2/5 94/2/5 98/2/5
f 100/2/5 98/2/5 99/2/5
f 101/4/6 102/4/6 103/4/6
f 103/4/6 102/4/6 104/4/6
f 101/4/6 103/4/6 105/4/6
f 104/4/6 102/4/6 106/4/6
f 101/4/6 105/4/6 107/4/6
f 105/4/6 106/4/6 107/4/6
f 106/4/6 102/4/6 108/4/6
f 107/4/6 106/4/6 108/4/6
f 109/4/6 110/4/6 111/4/6
f 111/4/6 110/4/6 112/4/6
