# MagicaVoxel @ Ephtracy

# group
o 

# material
mtllib Desert Basic 2.mtl
usemtl palette

# normals
vn 0 0 -1
vn 0 0 1
vn 1 0 0
vn -1 0 0
vn 0 -1 0
vn 0 1 0

# texcoords
vt 0.412109 0.5
vt 0.416016 0.5
vt 0.419922 0.5
vt 0.423828 0.5

# verts
v 0.8 0 -0.8
v -0.4 0 -0.8
v -0.5 0 -0.8
v -0.8 0 -0.8
v 0.8 0.1 -0.8
v -0.4 0.1 -0.8
v -0.5 0.1 -0.8
v -0.8 0.1 -0.8
v 0.8 0 0.8
v -0.8 0 0.8
v 0.8 0.1 0.8
v -0.8 0.1 0.8
v 0.8 0 -0.8
v 0.8 0.1 -0.8
v 0.8 0 0.8
v 0.8 0.1 0.8
v -0.8 0 -0.8
v -0.8 0.1 -0.8
v -0.8 0 0.8
v -0.8 0.1 0.8
v 0.8 0 -0.8
v 0.8 0 0.8
v 0.7 0 -0.6
v 0.7 0 -0.5
v 0.6 0 -0.6
v 0.6 0 -0.5
v 0.6 0 -0.1
v 0.6 0 0
v 0.6 0 0.4
v 0.6 0 0.5
v 0.5 0 -0.1
v 0.5 0 0
v 0.5 0 0.4
v 0.5 0 0.5
v 0.4 0 -0.5
v 0.4 0 -0.4
v 0.4 0 0.1
v 0.4 0 0.2
v 0.3 0 -0.5
v 0.3 0 -0.4
v 0.3 0 -0.3
v 0.3 0 0.1
v 0.3 0 0.2
v 0.3 0 0.6
v 0.3 0 0.7
v 0.2 0 -0.5
v 0.2 0 -0.4
v 0.2 0 -0.3
v 0.2 0 0.6
v 0.2 0 0.7
v 0.1 0 -0.5
v 0.1 0 -0.4
v 0.1 0 -0.2
v 0.1 0 -0.1
v 0 0 -0.2
v 0 0 -0.1
v -0.1 0 0
v -0.1 0 0.1
v -0.1 0 0.2
v -0.1 0 0.3
v -0.2 0 -0.6
v -0.2 0 -0.5
v -0.2 0 0
v -0.2 0 0.1
v -0.2 0 0.2
v -0.2 0 0.3
v -0.2 0 0.4
v -0.2 0 0.5
v -0.2 0 0.6
v -0.3 0 -0.6
v -0.3 0 -0.5
v -0.3 0 0.5
v -0.3 0 0.6
v -0.4 0 -0.8
v -0.4 0 -0.7
v -0.4 0 -0.3
v -0.4 0 -0.2
v -0.4 0 0.2
v -0.4 0 0.3
v -0.4 0 0.4
v -0.5 0 -0.8
v -0.5 0 -0.7
v -0.5 0 -0.6
v -0.5 0 -0.5
v -0.5 0 -0.3
v -0.5 0 -0.2
v -0.5 0 0.2
v -0.5 0 0.3
v -0.6 0 -0.6
v -0.6 0 -0.5
v -0.6 0 -0.1
v -0.6 0 0
v -0.7 0 -0.1
v -0.7 0 0
v -0.8 0 -0.8
v -0.8 0 0.8
v 0.8 0.1 -0.8
v 0.8 0.1 0.8
v 0.7 0.1 -0.6
v 0.7 0.1 -0.5
v 0.6 0.1 -0.6
v 0.6 0.1 -0.5
v 0.6 0.1 -0.1
v 0.6 0.1 0
v 0.6 0.1 0.4
v 0.6 0.1 0.5
v 0.5 0.1 -0.1
v 0.5 0.1 0
v 0.5 0.1 0.4
v 0.5 0.1 0.5
v 0.4 0.1 -0.5
v 0.4 0.1 -0.4
v 0.4 0.1 0.1
v 0.4 0.1 0.2
v 0.3 0.1 -0.5
v 0.3 0.1 -0.4
v 0.3 0.1 -0.3
v 0.3 0.1 0.1
v 0.3 0.1 0.2
v 0.3 0.1 0.6
v 0.3 0.1 0.7
v 0.2 0.1 -0.5
v 0.2 0.1 -0.4
v 0.2 0.1 -0.3
v 0.2 0.1 0.6
v 0.2 0.1 0.7
v 0.1 0.1 -0.5
v 0.1 0.1 -0.4
v 0.1 0.1 -0.2
v 0.1 0.1 -0.1
v 0 0.1 -0.2
v 0 0.1 -0.1
v -0.1 0.1 0
v -0.1 0.1 0.1
v -0.1 0.1 0.2
v -0.1 0.1 0.3
v -0.2 0.1 -0.6
v -0.2 0.1 -0.5
v -0.2 0.1 0
v -0.2 0.1 0.1
v -0.2 0.1 0.2
v -0.2 0.1 0.3
v -0.2 0.1 0.4
v -0.2 0.1 0.5
v -0.2 0.1 0.6
v -0.3 0.1 -0.6
v -0.3 0.1 -0.5
v -0.3 0.1 0.5
v -0.3 0.1 0.6
v -0.4 0.1 -0.8
v -0.4 0.1 -0.7
v -0.4 0.1 -0.3
v -0.4 0.1 -0.2
v -0.4 0.1 0.2
v -0.4 0.1 0.3
v -0.4 0.1 0.4
v -0.5 0.1 -0.8
v -0.5 0.1 -0.7
v -0.5 0.1 -0.6
v -0.5 0.1 -0.5
v -0.5 0.1 -0.3
v -0.5 0.1 -0.2
v -0.5 0.1 0.2
v -0.5 0.1 0.3
v -0.6 0.1 -0.6
v -0.6 0.1 -0.5
v -0.6 0.1 -0.1
v -0.6 0.1 0
v -0.7 0.1 -0.1
v -0.7 0.1 0
v -0.8 0.1 -0.8
v -0.8 0.1 0.8

# faces
f 1/2/1 2/2/1 5/2/1
f 2/4/1 3/4/1 6/4/1
f 5/2/1 2/2/1 6/2/1
f 3/2/1 4/2/1 7/2/1
f 6/4/1 3/4/1 7/4/1
f 7/2/1 4/2/1 8/2/1
f 11/2/2 10/2/2 9/2/2
f 12/2/2 10/2/2 11/2/2
f 13/2/3 14/2/3 15/2/3
f 15/2/3 14/2/3 16/2/3
f 19/2/4 18/2/4 17/2/4
f 20/2/4 18/2/4 19/2/4
f 21/2/5 22/2/5 23/2/5
f 23/2/5 22/2/5 24/2/5
f 21/2/5 23/2/5 25/2/5
f 23/4/5 24/4/5 25/4/5
f 24/2/5 22/2/5 26/2/5
f 25/4/5 24/4/5 26/4/5
f 26/2/5 22/2/5 27/2/5
f 27/2/5 22/2/5 28/2/5
f 28/2/5 22/2/5 29/2/5
f 29/2/5 22/2/5 30/2/5
f 25/2/5 26/2/5 31/2/5
f 26/2/5 27/2/5 31/2/5
f 27/1/5 28/1/5 31/1/5
f 28/2/5 29/2/5 32/2/5
f 31/1/5 28/1/5 32/1/5
f 29/3/5 30/3/5 33/3/5
f 32/2/5 29/2/5 33/2/5
f 30/2/5 22/2/5 34/2/5
f 33/3/5 30/3/5 34/3/5
f 32/2/5 33/2/5 35/2/5
f 31/2/5 32/2/5 35/2/5
f 33/2/5 34/2/5 35/2/5
f 25/2/5 31/2/5 35/2/5
f 35/2/5 34/2/5 36/2/5
f 36/2/5 34/2/5 37/2/5
f 37/2/5 34/2/5 38/2/5
f 25/2/5 35/2/5 39/2/5
f 35/3/5 36/3/5 39/3/5
f 36/2/5 37/2/5 40/2/5
f 39/3/5 36/3/5 40/3/5
f 40/2/5 37/2/5 41/2/5
f 37/1/5 38/1/5 42/1/5
f 41/2/5 37/2/5 42/2/5
f 38/2/5 34/2/5 43/2/5
f 42/1/5 38/1/5 43/1/5
f 34/2/5 22/2/5 44/2/5
f 43/2/5 34/2/5 44/2/5
f 44/2/5 22/2/5 45/2/5
f 25/2/5 39/2/5 46/2/5
f 39/2/5 40/2/5 46/2/5
f 40/3/5 41/3/5 47/3/5
f 46/2/5 40/2/5 47/2/5
f 42/2/5 43/2/5 48/2/5
f 47/3/5 41/3/5 48/3/5
f 41/2/5 42/2/5 48/2/5
f 43/2/5 44/2/5 48/2/5
f 44/4/5 45/4/5 49/4/5
f 48/2/5 44/2/5 49/2/5
f 45/2/5 22/2/5 50/2/5
f 49/4/5 45/4/5 50/4/5
f 46/3/5 47/3/5 51/3/5
f 25/2/5 46/2/5 51/2/5
f 47/2/5 48/2/5 52/2/5
f 51/3/5 47/3/5 52/3/5
f 49/2/5 50/2/5 52/2/5
f 48/2/5 49/2/5 52/2/5
f 52/2/5 50/2/5 53/2/5
f 53/2/5 50/2/5 54/2/5
f 51/2/5 52/2/5 55/2/5
f 52/2/5 53/2/5 55/2/5
f 53/4/5 54/4/5 55/4/5
f 54/2/5 50/2/5 56/2/5
f 55/4/5 54/4/5 56/4/5
f 55/2/5 56/2/5 57/2/5
f 56/2/5 50/2/5 57/2/5
f 57/2/5 50/2/5 58/2/5
f 58/2/5 50/2/5 59/2/5
f 59/2/5 50/2/5 60/2/5
f 21/2/5 25/2/5 61/2/5
f 25/2/5 51/2/5 61/2/5
f 51/2/5 55/2/5 61/2/5
f 55/2/5 57/2/5 61/2/5
f 61/2/5 57/2/5 62/2/5
f 57/4/5 58/4/5 63/4/5
f 62/2/5 57/2/5 63/2/5
f 58/2/5 59/2/5 64/2/5
f 63/4/5 58/4/5 64/4/5
f 59/3/5 60/3/5 65/3/5
f 64/2/5 59/2/5 65/2/5
f 60/2/5 50/2/5 66/2/5
f 65/3/5 60/3/5 66/3/5
f 66/2/5 50/2/5 67/2/5
f 67/2/5 50/2/5 68/2/5
f 68/2/5 50/2/5 69/2/5
f 61/1/5 62/1/5 70/1/5
f 21/2/5 61/2/5 70/2/5
f 64/2/5 65/2/5 71/2/5
f 70/1/5 62/1/5 71/1/5
f 63/2/5 64/2/5 71/2/5
f 62/2/5 63/2/5 71/2/5
f 65/2/5 66/2/5 71/2/5
f 67/2/5 68/2/5 72/2/5
f 68/1/5 69/1/5 72/1/5
f 69/2/5 50/2/5 73/2/5
f 72/1/5 69/1/5 73/1/5
f 21/2/5 70/2/5 74/2/5
f 70/2/5 71/2/5 74/2/5
f 74/2/5 71/2/5 75/2/5
f 71/2/5 66/2/5 76/2/5
f 75/2/5 71/2/5 76/2/5
f 76/2/5 66/2/5 77/2/5
f 77/2/5 66/2/5 78/2/5
f 66/3/5 67/3/5 79/3/5
f 78/2/5 66/2/5 79/2/5
f 67/2/5 72/2/5 80/2/5
f 79/3/5 67/3/5 80/3/5
f 72/2/5 73/2/5 80/2/5
f 74/4/5 75/4/5 81/4/5
f 75/2/5 76/2/5 82/2/5
f 81/4/5 75/4/5 82/4/5
f 82/2/5 76/2/5 83/2/5
f 83/2/5 76/2/5 84/2/5
f 76/3/5 77/3/5 85/3/5
f 84/2/5 76/2/5 85/2/5
f 77/2/5 78/2/5 86/2/5
f 85/3/5 77/3/5 86/3/5
f 78/3/5 79/3/5 87/3/5
f 86/2/5 78/2/5 87/2/5
f 79/2/5 80/2/5 88/2/5
f 87/3/5 79/3/5 88/3/5
f 83/1/5 84/1/5 89/1/5
f 81/2/5 82/2/5 89/2/5
f 82/2/5 83/2/5 89/2/5
f 84/2/5 85/2/5 90/2/5
f 89/1/5 84/1/5 90/1/5
f 85/2/5 86/2/5 90/2/5
f 87/2/5 88/2/5 90/2/5
f 86/2/5 87/2/5 90/2/5
f 90/2/5 88/2/5 91/2/5
f 91/2/5 88/2/5 92/2/5
f 89/2/5 90/2/5 93/2/5
f 90/2/5 91/2/5 93/2/5
f 91/4/5 92/4/5 93/4/5
f 92/2/5 88/2/5 94/2/5
f 93/4/5 92/4/5 94/4/5
f 81/2/5 89/2/5 95/2/5
f 89/2/5 93/2/5 95/2/5
f 93/2/5 94/2/5 95/2/5
f 73/2/5 50/2/5 96/2/5
f 95/2/5 94/2/5 96/2/5
f 50/2/5 22/2/5 96/2/5
f 80/2/5 73/2/5 96/2/5
f 88/2/5 80/2/5 96/2/5
f 94/2/5 88/2/5 96/2/5
f 99/2/6 98/2/6 97/2/6
f 100/2/6 98/2/6 99/2/6
f 101/2/6 99/2/6 97/2/6
f 101/4/6 100/4/6 99/4/6
f 102/2/6 98/2/6 100/2/6
f 102/4/6 100/4/6 101/4/6
f 103/2/6 98/2/6 102/2/6
f 104/2/6 98/2/6 103/2/6
f 105/2/6 98/2/6 104/2/6
f 106/2/6 98/2/6 105/2/6
f 107/2/6 102/2/6 101/2/6
f 107/2/6 103/2/6 102/2/6
f 107/1/6 104/1/6 103/1/6
f 108/2/6 105/2/6 104/2/6
f 108/1/6 104/1/6 107/1/6
f 109/3/6 106/3/6 105/3/6
f 109/2/6 105/2/6 108/2/6
f 110/2/6 98/2/6 106/2/6
f 110/3/6 106/3/6 109/3/6
f 111/2/6 109/2/6 108/2/6
f 111/2/6 108/2/6 107/2/6
f 111/2/6 110/2/6 109/2/6
f 111/2/6 107/2/6 101/2/6
f 112/2/6 110/2/6 111/2/6
f 113/2/6 110/2/6 112/2/6
f 114/2/6 110/2/6 113/2/6
f 115/2/6 111/2/6 101/2/6
f 115/3/6 112/3/6 111/3/6
f 116/2/6 113/2/6 112/2/6
f 116/3/6 112/3/6 115/3/6
f 117/2/6 113/2/6 116/2/6
f 118/1/6 114/1/6 113/1/6
f 118/2/6 113/2/6 117/2/6
f 119/2/6 110/2/6 114/2/6
f 119/1/6 114/1/6 118/1/6
f 120/2/6 98/2/6 110/2/6
f 120/2/6 110/2/6 119/2/6
f 121/2/6 98/2/6 120/2/6
f 122/2/6 115/2/6 101/2/6
f 122/2/6 116/2/6 115/2/6
f 123/3/6 117/3/6 116/3/6
f 123/2/6 116/2/6 122/2/6
f 124/2/6 119/2/6 118/2/6
f 124/3/6 117/3/6 123/3/6
f 124/2/6 118/2/6 117/2/6
f 124/2/6 120/2/6 119/2/6
f 125/4/6 121/4/6 120/4/6
f 125/2/6 120/2/6 124/2/6
f 126/2/6 98/2/6 121/2/6
f 126/4/6 121/4/6 125/4/6
f 127/3/6 123/3/6 122/3/6
f 127/2/6 122/2/6 101/2/6
f 128/2/6 124/2/6 123/2/6
f 128/3/6 123/3/6 127/3/6
f 128/2/6 126/2/6 125/2/6
f 128/2/6 125/2/6 124/2/6
f 129/2/6 126/2/6 128/2/6
f 130/2/6 126/2/6 129/2/6
f 131/2/6 128/2/6 127/2/6
f 131/2/6 129/2/6 128/2/6
f 131/4/6 130/4/6 129/4/6
f 132/2/6 126/2/6 130/2/6
f 132/4/6 130/4/6 131/4/6
f 133/2/6 132/2/6 131/2/6
f 133/2/6 126/2/6 132/2/6
f 134/2/6 126/2/6 133/2/6
f 135/2/6 126/2/6 134/2/6
f 136/2/6 126/2/6 135/2/6
f 137/2/6 101/2/6 97/2/6
f 137/2/6 127/2/6 101/2/6
f 137/2/6 131/2/6 127/2/6
f 137/2/6 133/2/6 131/2/6
f 138/2/6 133/2/6 137/2/6
f 139/4/6 134/4/6 133/4/6
f 139/2/6 133/2/6 138/2/6
f 140/2/6 135/2/6 134/2/6
f 140/4/6 134/4/6 139/4/6
f 141/3/6 136/3/6 135/3/6
f 141/2/6 135/2/6 140/2/6
f 142/2/6 126/2/6 136/2/6
f 142/3/6 136/3/6 141/3/6
f 143/2/6 126/2/6 142/2/6
f 144/2/6 126/2/6 143/2/6
f 145/2/6 126/2/6 144/2/6
f 146/1/6 138/1/6 137/1/6
f 146/2/6 137/2/6 97/2/6
f 147/2/6 141/2/6 140/2/6
f 147/1/6 138/1/6 146/1/6
f 147/2/6 140/2/6 139/2/6
f 147/2/6 139/2/6 138/2/6
f 147/2/6 142/2/6 141/2/6
f 148/2/6 144/2/6 143/2/6
f 148/1/6 145/1/6 144/1/6
f 149/2/6 126/2/6 145/2/6
f 149/1/6 145/1/6 148/1/6
f 150/2/6 146/2/6 97/2/6
f 150/2/6 147/2/6 146/2/6
f 151/2/6 147/2/6 150/2/6
f 152/2/6 142/2/6 147/2/6
f 152/2/6 147/2/6 151/2/6
f 153/2/6 142/2/6 152/2/6
f 154/2/6 142/2/6 153/2/6
f 155/3/6 143/3/6 142/3/6
f 155/2/6 142/2/6 154/2/6
f 156/2/6 148/2/6 143/2/6
f 156/3/6 143/3/6 155/3/6
f 156/2/6 149/2/6 148/2/6
f 157/4/6 151/4/6 150/4/6
f 158/2/6 152/2/6 151/2/6
f 158/4/6 151/4/6 157/4/6
f 159/2/6 152/2/6 158/2/6
f 160/2/6 152/2/6 159/2/6
f 161/3/6 153/3/6 152/3/6
f 161/2/6 152/2/6 160/2/6
f 162/2/6 154/2/6 153/2/6
f 162/3/6 153/3/6 161/3/6
f 163/3/6 155/3/6 154/3/6
f 163/2/6 154/2/6 162/2/6
f 164/2/6 156/2/6 155/2/6
f 164/3/6 155/3/6 163/3/6
f 165/1/6 160/1/6 159/1/6
f 165/2/6 158/2/6 157/2/6
f 165/2/6 159/2/6 158/2/6
f 166/2/6 161/2/6 160/2/6
f 166/1/6 160/1/6 165/1/6
f 166/2/6 162/2/6 161/2/6
f 166/2/6 164/2/6 163/2/6
f 166/2/6 163/2/6 162/2/6
f 167/2/6 164/2/6 166/2/6
f 168/2/6 164/2/6 167/2/6
f 169/2/6 166/2/6 165/2/6
f 169/2/6 167/2/6 166/2/6
f 169/4/6 168/4/6 167/4/6
f 170/2/6 164/2/6 168/2/6
f 170/4/6 168/4/6 169/4/6
f 171/2/6 165/2/6 157/2/6
f 171/2/6 169/2/6 165/2/6
f 171/2/6 170/2/6 169/2/6
f 172/2/6 126/2/6 149/2/6
f 172/2/6 170/2/6 171/2/6
f 172/2/6 98/2/6 126/2/6
f 172/2/6 149/2/6 156/2/6
f 172/2/6 156/2/6 164/2/6
f 172/2/6 164/2/6 170/2/6
