# MagicaVoxel @ Ephtracy

# group
o 

# material
mtllib Water Ground Light 3.mtl
usemtl palette

# normals
vn -1 0 0
vn 1 0 0
vn 0 0 1
vn 0 0 -1
vn 0 -1 0
vn 0 1 0

# texcoords
vt 0.677734 0.5
vt 0.716797 0.5
vt 0.748047 0.5
vt 0.755859 0.5

# verts
v -0.8 0 0.8
v -0.8 0 0.7
v -0.8 0 0.6
v -0.8 0 -0.1
v -0.8 0 -0.2
v -0.8 0 -0.8
v -0.8 0.1 0.8
v -0.8 0.1 0.7
v -0.8 0.1 0.6
v -0.8 0.1 -0.1
v -0.8 0.1 -0.2
v -0.8 0.1 -0.8
v 0.8 0 0.8
v 0.8 0 0.7
v 0.8 0 0.6
v 0.8 0 0.2
v 0.8 0 0.1
v 0.8 0 -0.1
v 0.8 0 -0.2
v 0.8 0 -0.5
v 0.8 0 -0.6
v 0.8 0 -0.8
v 0.8 0.1 0.8
v 0.8 0.1 0.7
v 0.8 0.1 0.6
v 0.8 0.1 0.2
v 0.8 0.1 0.1
v 0.8 0.1 -0.1
v 0.8 0.1 -0.2
v 0.8 0.1 -0.5
v 0.8 0.1 -0.6
v 0.8 0.1 -0.8
v -0.8 0 0.8
v -0.8 0.1 0.8
v -0.7 0 0.8
v -0.7 0.1 0.8
v -0.5 0 0.8
v -0.5 0.1 0.8
v -0.4 0 0.8
v -0.4 0.1 0.8
v -0.2 0 0.8
v -0.2 0.1 0.8
v 0 0 0.8
v 0 0.1 0.8
v 0.1 0 0.8
v 0.1 0.1 0.8
v 0.8 0 0.8
v 0.8 0.1 0.8
v -0.8 0 -0.8
v -0.8 0.1 -0.8
v -0.6 0 -0.8
v -0.6 0.1 -0.8
v -0.5 0 -0.8
v -0.5 0.1 -0.8
v -0.3 0 -0.8
v -0.3 0.1 -0.8
v -0.2 0 -0.8
v -0.2 0.1 -0.8
v -0.1 0 -0.8
v -0.1 0.1 -0.8
v 0 0 -0.8
v 0 0.1 -0.8
v 0.1 0 -0.8
v 0.1 0.1 -0.8
v 0.2 0 -0.8
v 0.2 0.1 -0.8
v 0.5 0 -0.8
v 0.5 0.1 -0.8
v 0.6 0 -0.8
v 0.6 0.1 -0.8
v 0.8 0 -0.8
v 0.8 0.1 -0.8
v -0.8 0 0.8
v -0.7 0 0.8
v -0.5 0 0.8
v -0.4 0 0.8
v -0.2 0 0.8
v 0 0 0.8
v 0.1 0 0.8
v 0.8 0 0.8
v -0.8 0 0.7
v -0.7 0 0.7
v -0.5 0 0.7
v -0.4 0 0.7
v -0.2 0 0.7
v -0.1 0 0.7
v 0 0 0.7
v 0.1 0 0.7
v 0.5 0 0.7
v 0.6 0 0.7
v 0.7 0 0.7
v 0.8 0 0.7
v -0.8 0 0.6
v -0.7 0 0.6
v -0.5 0 0.6
v -0.4 0 0.6
v -0.2 0 0.6
v -0.1 0 0.6
v 0 0 0.6
v 0.1 0 0.6
v 0.2 0 0.6
v 0.3 0 0.6
v 0.5 0 0.6
v 0.6 0 0.6
v 0.7 0 0.6
v 0.8 0 0.6
v -0.6 0 0.5
v -0.5 0 0.5
v -0.1 0 0.5
v 0 0 0.5
v 0.1 0 0.5
v 0.2 0 0.5
v 0.3 0 0.5
v 0.4 0 0.5
v 0.6 0 0.5
v 0.7 0 0.5
v -0.7 0 0.4
v -0.6 0 0.4
v -0.5 0 0.4
v -0.4 0 0.4
v -0.1 0 0.4
v 0 0 0.4
v 0.1 0 0.4
v 0.2 0 0.4
v 0.3 0 0.4
v 0.4 0 0.4
v -0.7 0 0.3
v -0.6 0 0.3
v -0.5 0 0.3
v -0.4 0 0.3
v -0.3 0 0.3
v -0.1 0 0.3
v 0.2 0 0.3
v 0.3 0 0.3
v 0.4 0 0.3
v 0.5 0 0.3
v -0.7 0 0.2
v -0.6 0 0.2
v -0.4 0 0.2
v -0.3 0 0.2
v -0.1 0 0.2
v 0 0 0.2
v 0.1 0 0.2
v 0.2 0 0.2
v 0.3 0 0.2
v 0.4 0 0.2
v 0.5 0 0.2
v 0.6 0 0.2
v 0.7 0 0.2
v 0.8 0 0.2
v -0.7 0 0.1
v -0.6 0 0.1
v -0.4 0 0.1
v -0.3 0 0.1
v -0.1 0 0.1
v 0 0 0.1
v 0.1 0 0.1
v 0.2 0 0.1
v 0.3 0 0.1
v 0.4 0 0.1
v 0.5 0 0.1
v 0.6 0 0.1
v 0.7 0 0.1
v 0.8 0 0.1
v -0.7 0 0
v -0.5 0 0
v -0.4 0 0
v -0.3 0 0
v 0.6 0 0
v 0.7 0 0
v -0.8 0 -0.1
v -0.7 0 -0.1
v -0.5 0 -0.1
v -0.4 0 -0.1
v -0.3 0 -0.1
v -0.2 0 -0.1
v -0.1 0 -0.1
v 0 0 -0.1
v 0.1 0 -0.1
v 0.3 0 -0.1
v 0.4 0 -0.1
v 0.5 0 -0.1
v 0.7 0 -0.1
v 0.8 0 -0.1
v -0.8 0 -0.2
v -0.7 0 -0.2
v -0.5 0 -0.2
v -0.4 0 -0.2
v -0.3 0 -0.2
v -0.2 0 -0.2
v -0.1 0 -0.2
v 0 0 -0.2
v 0.1 0 -0.2
v 0.3 0 -0.2
v 0.4 0 -0.2
v 0.5 0 -0.2
v 0.6 0 -0.2
v 0.7 0 -0.2
v 0.8 0 -0.2
v -0.6 0 -0.3
v -0.4 0 -0.3
v 0 0 -0.3
v 0.1 0 -0.3
v 0.3 0 -0.3
v 0.4 0 -0.3
v 0.5 0 -0.3
v 0.6 0 -0.3
v -0.7 0 -0.4
v -0.6 0 -0.4
v -0.4 0 -0.4
v -0.3 0 -0.4
v -0.1 0 -0.4
v 0 0 -0.4
v 0.1 0 -0.4
v 0.2 0 -0.4
v 0.5 0 -0.4
v 0.7 0 -0.4
v -0.7 0 -0.5
v -0.6 0 -0.5
v -0.4 0 -0.5
v -0.3 0 -0.5
v -0.2 0 -0.5
v -0.1 0 -0.5
v 0 0 -0.5
v 0.1 0 -0.5
v 0.2 0 -0.5
v 0.3 0 -0.5
v 0.4 0 -0.5
v 0.5 0 -0.5
v 0.7 0 -0.5
v 0.8 0 -0.5
v -0.7 0 -0.6
v -0.6 0 -0.6
v -0.2 0 -0.6
v -0.1 0 -0.6
v 0 0 -0.6
v 0.1 0 -0.6
v 0.2 0 -0.6
v 0.3 0 -0.6
v 0.4 0 -0.6
v 0.5 0 -0.6
v 0.7 0 -0.6
v 0.8 0 -0.6
v -0.7 0 -0.7
v -0.6 0 -0.7
v -0.5 0 -0.7
v -0.3 0 -0.7
v -0.2 0 -0.7
v -0.1 0 -0.7
v 0 0 -0.7
v 0.1 0 -0.7
v 0.2 0 -0.7
v 0.5 0 -0.7
v 0.6 0 -0.7
v -0.8 0 -0.8
v -0.6 0 -0.8
v -0.5 0 -0.8
v -0.3 0 -0.8
v -0.2 0 -0.8
v -0.1 0 -0.8
v 0 0 -0.8
v 0.1 0 -0.8
v 0.2 0 -0.8
v 0.5 0 -0.8
v 0.6 0 -0.8
v 0.8 0 -0.8
v -0.8 0.1 0.8
v -0.7 0.1 0.8
v -0.5 0.1 0.8
v -0.4 0.1 0.8
v -0.2 0.1 0.8
v 0 0.1 0.8
v 0.1 0.1 0.8
v 0.8 0.1 0.8
v -0.8 0.1 0.7
v -0.7 0.1 0.7
v -0.5 0.1 0.7
v -0.4 0.1 0.7
v -0.2 0.1 0.7
v -0.1 0.1 0.7
v 0 0.1 0.7
v 0.1 0.1 0.7
v 0.5 0.1 0.7
v 0.6 0.1 0.7
v 0.7 0.1 0.7
v 0.8 0.1 0.7
v -0.8 0.1 0.6
v -0.7 0.1 0.6
v -0.5 0.1 0.6
v -0.4 0.1 0.6
v -0.2 0.1 0.6
v -0.1 0.1 0.6
v 0 0.1 0.6
v 0.1 0.1 0.6
v 0.2 0.1 0.6
v 0.3 0.1 0.6
v 0.5 0.1 0.6
v 0.6 0.1 0.6
v 0.7 0.1 0.6
v 0.8 0.1 0.6
v -0.6 0.1 0.5
v -0.5 0.1 0.5
v -0.1 0.1 0.5
v 0 0.1 0.5
v 0.1 0.1 0.5
v 0.2 0.1 0.5
v 0.3 0.1 0.5
v 0.4 0.1 0.5
v 0.6 0.1 0.5
v 0.7 0.1 0.5
v -0.7 0.1 0.4
v -0.6 0.1 0.4
v -0.5 0.1 0.4
v -0.4 0.1 0.4
v -0.1 0.1 0.4
v 0 0.1 0.4
v 0.1 0.1 0.4
v 0.2 0.1 0.4
v 0.3 0.1 0.4
v 0.4 0.1 0.4
v -0.7 0.1 0.3
v -0.6 0.1 0.3
v -0.5 0.1 0.3
v -0.4 0.1 0.3
v -0.3 0.1 0.3
v -0.1 0.1 0.3
v 0.2 0.1 0.3
v 0.3 0.1 0.3
v 0.4 0.1 0.3
v 0.5 0.1 0.3
v -0.7 0.1 0.2
v -0.6 0.1 0.2
v -0.4 0.1 0.2
v -0.3 0.1 0.2
v -0.1 0.1 0.2
v 0 0.1 0.2
v 0.1 0.1 0.2
v 0.2 0.1 0.2
v 0.3 0.1 0.2
v 0.4 0.1 0.2
v 0.5 0.1 0.2
v 0.6 0.1 0.2
v 0.7 0.1 0.2
v 0.8 0.1 0.2
v -0.7 0.1 0.1
v -0.6 0.1 0.1
v -0.4 0.1 0.1
v -0.3 0.1 0.1
v -0.1 0.1 0.1
v 0 0.1 0.1
v 0.1 0.1 0.1
v 0.2 0.1 0.1
v 0.3 0.1 0.1
v 0.4 0.1 0.1
v 0.5 0.1 0.1
v 0.6 0.1 0.1
v 0.7 0.1 0.1
v 0.8 0.1 0.1
v -0.7 0.1 0
v -0.5 0.1 0
v -0.4 0.1 0
v -0.3 0.1 0
v 0.6 0.1 0
v 0.7 0.1 0
v -0.8 0.1 -0.1
v -0.7 0.1 -0.1
v -0.5 0.1 -0.1
v -0.4 0.1 -0.1
v -0.3 0.1 -0.1
v -0.2 0.1 -0.1
v -0.1 0.1 -0.1
v 0 0.1 -0.1
v 0.1 0.1 -0.1
v 0.3 0.1 -0.1
v 0.4 0.1 -0.1
v 0.5 0.1 -0.1
v 0.7 0.1 -0.1
v 0.8 0.1 -0.1
v -0.8 0.1 -0.2
v -0.7 0.1 -0.2
v -0.5 0.1 -0.2
v -0.4 0.1 -0.2
v -0.3 0.1 -0.2
v -0.2 0.1 -0.2
v -0.1 0.1 -0.2
v 0 0.1 -0.2
v 0.1 0.1 -0.2
v 0.3 0.1 -0.2
v 0.4 0.1 -0.2
v 0.5 0.1 -0.2
v 0.6 0.1 -0.2
v 0.7 0.1 -0.2
v 0.8 0.1 -0.2
v -0.6 0.1 -0.3
v -0.4 0.1 -0.3
v 0 0.1 -0.3
v 0.1 0.1 -0.3
v 0.3 0.1 -0.3
v 0.4 0.1 -0.3
v 0.5 0.1 -0.3
v 0.6 0.1 -0.3
v -0.7 0.1 -0.4
v -0.6 0.1 -0.4
v -0.4 0.1 -0.4
v -0.3 0.1 -0.4
v -0.1 0.1 -0.4
v 0 0.1 -0.4
v 0.1 0.1 -0.4
v 0.2 0.1 -0.4
v 0.5 0.1 -0.4
v 0.7 0.1 -0.4
v -0.7 0.1 -0.5
v -0.6 0.1 -0.5
v -0.4 0.1 -0.5
v -0.3 0.1 -0.5
v -0.2 0.1 -0.5
v -0.1 0.1 -0.5
v 0 0.1 -0.5
v 0.1 0.1 -0.5
v 0.2 0.1 -0.5
v 0.3 0.1 -0.5
v 0.4 0.1 -0.5
v 0.5 0.1 -0.5
v 0.7 0.1 -0.5
v 0.8 0.1 -0.5
v -0.7 0.1 -0.6
v -0.6 0.1 -0.6
v -0.2 0.1 -0.6
v -0.1 0.1 -0.6
v 0 0.1 -0.6
v 0.1 0.1 -0.6
v 0.2 0.1 -0.6
v 0.3 0.1 -0.6
v 0.4 0.1 -0.6
v 0.5 0.1 -0.6
v 0.7 0.1 -0.6
v 0.8 0.1 -0.6
v -0.7 0.1 -0.7
v -0.6 0.1 -0.7
v -0.5 0.1 -0.7
v -0.3 0.1 -0.7
v -0.2 0.1 -0.7
v -0.1 0.1 -0.7
v 0 0.1 -0.7
v 0.1 0.1 -0.7
v 0.2 0.1 -0.7
v 0.5 0.1 -0.7
v 0.6 0.1 -0.7
v -0.8 0.1 -0.8
v -0.6 0.1 -0.8
v -0.5 0.1 -0.8
v -0.3 0.1 -0.8
v -0.2 0.1 -0.8
v -0.1 0.1 -0.8
v 0 0.1 -0.8
v 0.1 0.1 -0.8
v 0.2 0.1 -0.8
v 0.5 0.1 -0.8
v 0.6 0.1 -0.8
v 0.8 0.1 -0.8

# faces
f 7/2/1 2/2/1 1/2/1
f 8/4/1 3/4/1 2/4/1
f 8/2/1 2/2/1 7/2/1
f 9/2/1 4/2/1 3/2/1
f 9/4/1 3/4/1 8/4/1
f 10/4/1 5/4/1 4/4/1
f 10/2/1 4/2/1 9/2/1
f 11/2/1 6/2/1 5/2/1
f 11/4/1 5/4/1 10/4/1
f 12/2/1 6/2/1 11/2/1
f 13/2/2 14/2/2 23/2/2
f 14/4/2 15/4/2 24/4/2
f 23/2/2 14/2/2 24/2/2
f 15/2/2 16/2/2 25/2/2
f 24/4/2 15/4/2 25/4/2
f 16/4/2 17/4/2 26/4/2
f 25/2/2 16/2/2 26/2/2
f 17/2/2 18/2/2 27/2/2
f 26/4/2 17/4/2 27/4/2
f 18/4/2 19/4/2 28/4/2
f 27/2/2 18/2/2 28/2/2
f 19/2/2 20/2/2 29/2/2
f 28/4/2 19/4/2 29/4/2
f 20/1/2 21/1/2 30/1/2
f 29/2/2 20/2/2 30/2/2
f 21/2/2 22/2/2 31/2/2
f 30/1/2 21/1/2 31/1/2
f 31/2/2 22/2/2 32/2/2
f 35/2/3 34/2/3 33/2/3
f 36/2/3 34/2/3 35/2/3
f 37/4/3 36/4/3 35/4/3
f 38/4/3 36/4/3 37/4/3
f 39/2/3 38/2/3 37/2/3
f 40/2/3 38/2/3 39/2/3
f 41/4/3 40/4/3 39/4/3
f 42/4/3 40/4/3 41/4/3
f 43/2/3 42/2/3 41/2/3
f 44/2/3 42/2/3 43/2/3
f 45/4/3 44/4/3 43/4/3
f 46/4/3 44/4/3 45/4/3
f 47/2/3 46/2/3 45/2/3
f 48/2/3 46/2/3 47/2/3
f 49/2/4 50/2/4 51/2/4
f 51/2/4 50/2/4 52/2/4
f 51/4/4 52/4/4 53/4/4
f 53/4/4 52/4/4 54/4/4
f 53/2/4 54/2/4 55/2/4
f 55/2/4 54/2/4 56/2/4
f 55/1/4 56/1/4 57/1/4
f 57/1/4 56/1/4 58/1/4
f 57/2/4 58/2/4 59/2/4
f 59/2/4 58/2/4 60/2/4
f 59/4/4 60/4/4 61/4/4
f 61/4/4 60/4/4 62/4/4
f 61/2/4 62/2/4 63/2/4
f 63/2/4 62/2/4 64/2/4
f 63/4/4 64/4/4 65/4/4
f 65/4/4 64/4/4 66/4/4
f 65/2/4 66/2/4 67/2/4
f 67/2/4 66/2/4 68/2/4
f 67/3/4 68/3/4 69/3/4
f 69/3/4 68/3/4 70/3/4
f 69/2/4 70/2/4 71/2/4
f 71/2/4 70/2/4 72/2/4
f 81/2/5 74/2/5 73/2/5
f 82/4/5 75/4/5 74/4/5
f 82/2/5 74/2/5 81/2/5
f 83/2/5 76/2/5 75/2/5
f 83/4/5 75/4/5 82/4/5
f 84/4/5 77/4/5 76/4/5
f 84/2/5 76/2/5 83/2/5
f 85/2/5 78/2/5 77/2/5
f 85/4/5 77/4/5 84/4/5
f 86/2/5 78/2/5 85/2/5
f 87/4/5 79/4/5 78/4/5
f 87/2/5 78/2/5 86/2/5
f 88/2/5 80/2/5 79/2/5
f 88/4/5 79/4/5 87/4/5
f 89/2/5 80/2/5 88/2/5
f 90/2/5 80/2/5 89/2/5
f 91/2/5 80/2/5 90/2/5
f 92/2/5 80/2/5 91/2/5
f 93/4/5 82/4/5 81/4/5
f 94/2/5 83/2/5 82/2/5
f 94/4/5 82/4/5 93/4/5
f 95/4/5 84/4/5 83/4/5
f 95/2/5 83/2/5 94/2/5
f 96/2/5 85/2/5 84/2/5
f 96/4/5 84/4/5 95/4/5
f 97/4/5 86/4/5 85/4/5
f 97/2/5 85/2/5 96/2/5
f 98/2/5 87/2/5 86/2/5
f 98/4/5 86/4/5 97/4/5
f 98/2/5 88/2/5 87/2/5
f 98/2/5 89/2/5 88/2/5
f 99/2/5 89/2/5 98/2/5
f 100/2/5 89/2/5 99/2/5
f 101/2/5 89/2/5 100/2/5
f 102/2/5 89/2/5 101/2/5
f 103/4/5 90/4/5 89/4/5
f 103/2/5 89/2/5 102/2/5
f 104/2/5 91/2/5 90/2/5
f 104/4/5 90/4/5 103/4/5
f 105/4/5 92/4/5 91/4/5
f 105/2/5 91/2/5 104/2/5
f 106/4/5 92/4/5 105/4/5
f 107/2/5 97/2/5 96/2/5
f 107/2/5 94/2/5 93/2/5
f 107/2/5 96/2/5 95/2/5
f 107/2/5 95/2/5 94/2/5
f 107/2/5 98/2/5 97/2/5
f 107/2/5 99/2/5 98/2/5
f 108/2/5 99/2/5 107/2/5
f 109/2/5 99/2/5 108/2/5
f 110/3/5 100/3/5 99/3/5
f 110/2/5 99/2/5 109/2/5
f 111/2/5 101/2/5 100/2/5
f 111/3/5 100/3/5 110/3/5
f 112/3/5 102/3/5 101/3/5
f 112/2/5 101/2/5 111/2/5
f 113/2/5 104/2/5 103/2/5
f 113/3/5 102/3/5 112/3/5
f 113/2/5 103/2/5 102/2/5
f 114/2/5 104/2/5 113/2/5
f 115/4/5 105/4/5 104/4/5
f 115/2/5 104/2/5 114/2/5
f 116/2/5 106/2/5 105/2/5
f 116/4/5 105/4/5 115/4/5
f 117/2/5 107/2/5 93/2/5
f 118/1/5 108/1/5 107/1/5
f 118/2/5 107/2/5 117/2/5
f 119/2/5 109/2/5 108/2/5
f 119/1/5 108/1/5 118/1/5
f 120/2/5 109/2/5 119/2/5
f 121/3/5 110/3/5 109/3/5
f 121/2/5 109/2/5 120/2/5
f 122/2/5 111/2/5 110/2/5
f 122/3/5 110/3/5 121/3/5
f 123/3/5 112/3/5 111/3/5
f 123/2/5 111/2/5 122/2/5
f 124/2/5 113/2/5 112/2/5
f 124/3/5 112/3/5 123/3/5
f 125/3/5 114/3/5 113/3/5
f 125/2/5 113/2/5 124/2/5
f 126/2/5 115/2/5 114/2/5
f 126/3/5 114/3/5 125/3/5
f 126/2/5 116/2/5 115/2/5
f 127/2/5 117/2/5 93/2/5
f 127/1/5 118/1/5 117/1/5
f 128/2/5 119/2/5 118/2/5
f 128/1/5 118/1/5 127/1/5
f 129/1/5 120/1/5 119/1/5
f 129/2/5 119/2/5 128/2/5
f 130/2/5 125/2/5 124/2/5
f 130/1/5 120/1/5 129/1/5
f 130/2/5 124/2/5 123/2/5
f 130/2/5 122/2/5 121/2/5
f 130/2/5 123/2/5 122/2/5
f 130/2/5 121/2/5 120/2/5
f 130/2/5 126/2/5 125/2/5
f 131/2/5 126/2/5 130/2/5
f 132/2/5 126/2/5 131/2/5
f 133/2/5 126/2/5 132/2/5
f 134/2/5 126/2/5 133/2/5
f 135/2/5 116/2/5 126/2/5
f 135/2/5 126/2/5 134/2/5
f 136/2/5 116/2/5 135/2/5
f 137/2/5 129/2/5 128/2/5
f 137/2/5 127/2/5 93/2/5
f 137/2/5 128/2/5 127/2/5
f 137/2/5 130/2/5 129/2/5
f 137/2/5 131/2/5 130/2/5
f 138/2/5 131/2/5 137/2/5
f 139/2/5 131/2/5 138/2/5
f 140/3/5 132/3/5 131/3/5
f 140/2/5 131/2/5 139/2/5
f 141/2/5 133/2/5 132/2/5
f 141/3/5 132/3/5 140/3/5
f 142/2/5 133/2/5 141/2/5
f 143/2/5 133/2/5 142/2/5
f 144/4/5 134/4/5 133/4/5
f 144/2/5 133/2/5 143/2/5
f 145/2/5 135/2/5 134/2/5
f 145/4/5 134/4/5 144/4/5
f 146/4/5 136/4/5 135/4/5
f 146/2/5 135/2/5 145/2/5
f 147/2/5 116/2/5 136/2/5
f 147/4/5 136/4/5 146/4/5
f 148/2/5 116/2/5 147/2/5
f 149/2/5 106/2/5 116/2/5
f 149/2/5 116/2/5 148/2/5
f 150/2/5 106/2/5 149/2/5
f 151/2/5 137/2/5 93/2/5
f 151/3/5 138/3/5 137/3/5
f 152/2/5 139/2/5 138/2/5
f 152/3/5 138/3/5 151/3/5
f 153/3/5 140/3/5 139/3/5
f 153/2/5 139/2/5 152/2/5
f 154/2/5 141/2/5 140/2/5
f 154/3/5 140/3/5 153/3/5
f 155/3/5 142/3/5 141/3/5
f 155/2/5 141/2/5 154/2/5
f 156/2/5 143/2/5 142/2/5
f 156/3/5 142/3/5 155/3/5
f 157/4/5 144/4/5 143/4/5
f 157/2/5 143/2/5 156/2/5
f 158/2/5 145/2/5 144/2/5
f 158/4/5 144/4/5 157/4/5
f 159/4/5 146/4/5 145/4/5
f 159/2/5 145/2/5 158/2/5
f 160/2/5 147/2/5 146/2/5
f 160/4/5 146/4/5 159/4/5
f 161/4/5 148/4/5 147/4/5
f 161/2/5 147/2/5 160/2/5
f 162/2/5 149/2/5 148/2/5
f 162/4/5 148/4/5 161/4/5
f 163/4/5 150/4/5 149/4/5
f 163/2/5 149/2/5 162/2/5
f 164/4/5 150/4/5 163/4/5
f 165/2/5 158/2/5 157/2/5
f 165/2/5 157/2/5 156/2/5
f 165/2/5 156/2/5 155/2/5
f 165/2/5 160/2/5 159/2/5
f 165/2/5 161/2/5 160/2/5
f 165/2/5 159/2/5 158/2/5
f 165/2/5 154/2/5 153/2/5
f 165/2/5 153/2/5 152/2/5
f 165/2/5 162/2/5 161/2/5
f 165/2/5 155/2/5 154/2/5
f 165/2/5 151/2/5 93/2/5
f 165/2/5 152/2/5 151/2/5
f 166/2/5 162/2/5 165/2/5
f 167/2/5 162/2/5 166/2/5
f 168/2/5 162/2/5 167/2/5
f 169/4/5 163/4/5 162/4/5
f 169/2/5 162/2/5 168/2/5
f 170/2/5 164/2/5 163/2/5
f 170/4/5 163/4/5 169/4/5
f 171/2/5 165/2/5 93/2/5
f 172/4/5 166/4/5 165/4/5
f 172/2/5 165/2/5 171/2/5
f 173/2/5 167/2/5 166/2/5
f 173/4/5 166/4/5 172/4/5
f 174/4/5 168/4/5 167/4/5
f 174/2/5 167/2/5 173/2/5
f 175/2/5 169/2/5 168/2/5
f 175/4/5 168/4/5 174/4/5
f 175/2/5 170/2/5 169/2/5
f 176/2/5 170/2/5 175/2/5
f 177/2/5 170/2/5 176/2/5
f 178/2/5 170/2/5 177/2/5
f 179/2/5 170/2/5 178/2/5
f 180/2/5 170/2/5 179/2/5
f 181/2/5 170/2/5 180/2/5
f 182/2/5 170/2/5 181/2/5
f 183/2/5 164/2/5 170/2/5
f 183/2/5 170/2/5 182/2/5
f 184/2/5 164/2/5 183/2/5
f 185/4/5 172/4/5 171/4/5
f 186/2/5 173/2/5 172/2/5
f 186/4/5 172/4/5 185/4/5
f 187/4/5 174/4/5 173/4/5
f 187/2/5 173/2/5 186/2/5
f 188/2/5 175/2/5 174/2/5
f 188/4/5 174/4/5 187/4/5
f 189/4/5 176/4/5 175/4/5
f 189/2/5 175/2/5 188/2/5
f 190/2/5 177/2/5 176/2/5
f 190/4/5 176/4/5 189/4/5
f 191/3/5 178/3/5 177/3/5
f 191/2/5 177/2/5 190/2/5
f 192/2/5 179/2/5 178/2/5
f 192/3/5 178/3/5 191/3/5
f 193/3/5 180/3/5 179/3/5
f 193/2/5 179/2/5 192/2/5
f 194/2/5 181/2/5 180/2/5
f 194/3/5 180/3/5 193/3/5
f 195/3/5 182/3/5 181/3/5
f 195/2/5 181/2/5 194/2/5
f 196/2/5 183/2/5 182/2/5
f 196/3/5 182/3/5 195/3/5
f 197/2/5 183/2/5 196/2/5
f 198/4/5 184/4/5 183/4/5
f 198/2/5 183/2/5 197/2/5
f 199/4/5 184/4/5 198/4/5
f 200/2/5 186/2/5 185/2/5
f 200/2/5 187/2/5 186/2/5
f 200/2/5 188/2/5 187/2/5
f 200/2/5 189/2/5 188/2/5
f 200/2/5 190/2/5 189/2/5
f 200/2/5 191/2/5 190/2/5
f 200/2/5 192/2/5 191/2/5
f 201/2/5 192/2/5 200/2/5
f 202/3/5 193/3/5 192/3/5
f 202/2/5 192/2/5 201/2/5
f 203/2/5 194/2/5 193/2/5
f 203/3/5 193/3/5 202/3/5
f 204/3/5 195/3/5 194/3/5
f 204/2/5 194/2/5 203/2/5
f 205/2/5 196/2/5 195/2/5
f 205/3/5 195/3/5 204/3/5
f 206/3/5 197/3/5 196/3/5
f 206/2/5 196/2/5 205/2/5
f 207/2/5 199/2/5 198/2/5
f 207/3/5 197/3/5 206/3/5
f 207/2/5 198/2/5 197/2/5
f 208/2/5 200/2/5 185/2/5
f 209/3/5 201/3/5 200/3/5
f 209/2/5 200/2/5 208/2/5
f 210/2/5 202/2/5 201/2/5
f 210/3/5 201/3/5 209/3/5
f 210/2/5 206/2/5 205/2/5
f 210/2/5 207/2/5 206/2/5
f 210/2/5 204/2/5 203/2/5
f 210/2/5 203/2/5 202/2/5
f 210/2/5 205/2/5 204/2/5
f 211/2/5 207/2/5 210/2/5
f 212/2/5 207/2/5 211/2/5
f 213/2/5 207/2/5 212/2/5
f 214/2/5 207/2/5 213/2/5
f 215/2/5 207/2/5 214/2/5
f 216/2/5 207/2/5 215/2/5
f 217/2/5 199/2/5 207/2/5
f 217/2/5 207/2/5 216/2/5
f 218/3/5 209/3/5 208/3/5
f 218/2/5 208/2/5 185/2/5
f 219/2/5 210/2/5 209/2/5
f 219/3/5 209/3/5 218/3/5
f 220/3/5 211/3/5 210/3/5
f 220/2/5 210/2/5 219/2/5
f 221/2/5 212/2/5 211/2/5
f 221/3/5 211/3/5 220/3/5
f 222/2/5 212/2/5 221/2/5
f 223/4/5 213/4/5 212/4/5
f 223/2/5 212/2/5 222/2/5
f 224/2/5 214/2/5 213/2/5
f 224/4/5 213/4/5 223/4/5
f 225/4/5 215/4/5 214/4/5
f 225/2/5 214/2/5 224/2/5
f 226/2/5 216/2/5 215/2/5
f 226/4/5 215/4/5 225/4/5
f 227/2/5 216/2/5 226/2/5
f 228/2/5 216/2/5 227/2/5
f 229/1/5 217/1/5 216/1/5
f 229/2/5 216/2/5 228/2/5
f 230/2/5 199/2/5 217/2/5
f 230/1/5 217/1/5 229/1/5
f 231/2/5 199/2/5 230/2/5
f 232/2/5 218/2/5 185/2/5
f 232/2/5 219/2/5 218/2/5
f 232/2/5 220/2/5 219/2/5
f 232/2/5 222/2/5 221/2/5
f 232/2/5 221/2/5 220/2/5
f 233/2/5 222/2/5 232/2/5
f 234/4/5 223/4/5 222/4/5
f 234/2/5 222/2/5 233/2/5
f 235/2/5 224/2/5 223/2/5
f 235/4/5 223/4/5 234/4/5
f 236/4/5 225/4/5 224/4/5
f 236/2/5 224/2/5 235/2/5
f 237/2/5 226/2/5 225/2/5
f 237/4/5 225/4/5 236/4/5
f 238/4/5 227/4/5 226/4/5
f 238/2/5 226/2/5 237/2/5
f 239/2/5 228/2/5 227/2/5
f 239/4/5 227/4/5 238/4/5
f 240/1/5 229/1/5 228/1/5
f 240/2/5 228/2/5 239/2/5
f 241/2/5 230/2/5 229/2/5
f 241/1/5 229/1/5 240/1/5
f 242/1/5 231/1/5 230/1/5
f 242/2/5 230/2/5 241/2/5
f 243/1/5 231/1/5 242/1/5
f 244/4/5 233/4/5 232/4/5
f 244/2/5 232/2/5 185/2/5
f 245/2/5 239/2/5 238/2/5
f 245/4/5 233/4/5 244/4/5
f 245/2/5 238/2/5 237/2/5
f 245/2/5 242/2/5 241/2/5
f 245/2/5 243/2/5 242/2/5
f 245/2/5 236/2/5 235/2/5
f 245/2/5 234/2/5 233/2/5
f 245/2/5 235/2/5 234/2/5
f 245/2/5 237/2/5 236/2/5
f 245/2/5 240/2/5 239/2/5
f 245/2/5 241/2/5 240/2/5
f 246/2/5 243/2/5 245/2/5
f 247/2/5 243/2/5 246/2/5
f 248/2/5 243/2/5 247/2/5
f 249/2/5 243/2/5 248/2/5
f 250/2/5 243/2/5 249/2/5
f 251/2/5 243/2/5 250/2/5
f 252/2/5 243/2/5 251/2/5
f 253/2/5 243/2/5 252/2/5
f 254/2/5 243/2/5 253/2/5
f 255/2/5 244/2/5 185/2/5
f 255/2/5 245/2/5 244/2/5
f 256/4/5 246/4/5 245/4/5
f 256/2/5 245/2/5 255/2/5
f 257/2/5 247/2/5 246/2/5
f 257/4/5 246/4/5 256/4/5
f 258/1/5 248/1/5 247/1/5
f 258/2/5 247/2/5 257/2/5
f 259/2/5 249/2/5 248/2/5
f 259/1/5 248/1/5 258/1/5
f 260/4/5 250/4/5 249/4/5
f 260/2/5 249/2/5 259/2/5
f 261/2/5 251/2/5 250/2/5
f 261/4/5 250/4/5 260/4/5
f 262/4/5 252/4/5 251/4/5
f 262/2/5 251/2/5 261/2/5
f 263/2/5 253/2/5 252/2/5
f 263/4/5 252/4/5 262/4/5
f 264/3/5 254/3/5 253/3/5
f 264/2/5 253/2/5 263/2/5
f 265/2/5 243/2/5 254/2/5
f 265/3/5 254/3/5 264/3/5
f 266/2/5 243/2/5 265/2/5
f 267/2/6 268/2/6 275/2/6
f 268/4/6 269/4/6 276/4/6
f 275/2/6 268/2/6 276/2/6
f 269/2/6 270/2/6 277/2/6
f 276/4/6 269/4/6 277/4/6
f 270/4/6 271/4/6 278/4/6
f 277/2/6 270/2/6 278/2/6
f 271/2/6 272/2/6 279/2/6
f 278/4/6 271/4/6 279/4/6
f 279/2/6 272/2/6 280/2/6
f 272/4/6 273/4/6 281/4/6
f 280/2/6 272/2/6 281/2/6
f 273/2/6 274/2/6 282/2/6
f 281/4/6 273/4/6 282/4/6
f 282/2/6 274/2/6 283/2/6
f 283/2/6 274/2/6 284/2/6
f 284/2/6 274/2/6 285/2/6
f 285/2/6 274/2/6 286/2/6
f 275/4/6 276/4/6 287/4/6
f 276/2/6 277/2/6 288/2/6
f 287/4/6 276/4/6 288/4/6
f 277/4/6 278/4/6 289/4/6
f 288/2/6 277/2/6 289/2/6
f 278/2/6 279/2/6 290/2/6
f 289/4/6 278/4/6 290/4/6
f 279/4/6 280/4/6 291/4/6
f 290/2/6 279/2/6 291/2/6
f 280/2/6 281/2/6 292/2/6
f 291/4/6 280/4/6 292/4/6
f 281/2/6 282/2/6 292/2/6
f 282/2/6 283/2/6 292/2/6
f 292/2/6 283/2/6 293/2/6
f 293/2/6 283/2/6 294/2/6
f 294/2/6 283/2/6 295/2/6
f 295/2/6 283/2/6 296/2/6
f 283/4/6 284/4/6 297/4/6
f 296/2/6 283/2/6 297/2/6
f 284/2/6 285/2/6 298/2/6
f 297/4/6 284/4/6 298/4/6
f 285/4/6 286/4/6 299/4/6
f 298/2/6 285/2/6 299/2/6
f 299/4/6 286/4/6 300/4/6
f 290/2/6 291/2/6 301/2/6
f 287/2/6 288/2/6 301/2/6
f 289/2/6 290/2/6 301/2/6
f 288/2/6 289/2/6 301/2/6
f 291/2/6 292/2/6 301/2/6
f 292/2/6 293/2/6 301/2/6
f 301/2/6 293/2/6 302/2/6
f 302/2/6 293/2/6 303/2/6
f 293/3/6 294/3/6 304/3/6
f 303/2/6 293/2/6 304/2/6
f 294/2/6 295/2/6 305/2/6
f 304/3/6 294/3/6 305/3/6
f 295/3/6 296/3/6 306/3/6
f 305/2/6 295/2/6 306/2/6
f 297/2/6 298/2/6 307/2/6
f 306/3/6 296/3/6 307/3/6
f 296/2/6 297/2/6 307/2/6
f 307/2/6 298/2/6 308/2/6
f 298/4/6 299/4/6 309/4/6
f 308/2/6 298/2/6 309/2/6
f 299/2/6 300/2/6 310/2/6
f 309/4/6 299/4/6 310/4/6
f 287/2/6 301/2/6 311/2/6
f 301/1/6 302/1/6 312/1/6
f 311/2/6 301/2/6 312/2/6
f 302/2/6 303/2/6 313/2/6
f 312/1/6 302/1/6 313/1/6
f 313/2/6 303/2/6 314/2/6
f 303/3/6 304/3/6 315/3/6
f 314/2/6 303/2/6 315/2/6
f 304/2/6 305/2/6 316/2/6
f 315/3/6 304/3/6 316/3/6
f 305/3/6 306/3/6 317/3/6
f 316/2/6 305/2/6 317/2/6
f 306/2/6 307/2/6 318/2/6
f 317/3/6 306/3/6 318/3/6
f 307/3/6 308/3/6 319/3/6
f 318/2/6 307/2/6 319/2/6
f 308/2/6 309/2/6 320/2/6
f 319/3/6 308/3/6 320/3/6
f 309/2/6 310/2/6 320/2/6
f 287/2/6 311/2/6 321/2/6
f 311/1/6 312/1/6 321/1/6
f 312/2/6 313/2/6 322/2/6
f 321/1/6 312/1/6 322/1/6
f 313/1/6 314/1/6 323/1/6
f 322/2/6 313/2/6 323/2/6
f 318/2/6 319/2/6 324/2/6
f 323/1/6 314/1/6 324/1/6
f 317/2/6 318/2/6 324/2/6
f 315/2/6 316/2/6 324/2/6
f 316/2/6 317/2/6 324/2/6
f 314/2/6 315/2/6 324/2/6
f 319/2/6 320/2/6 324/2/6
f 324/2/6 320/2/6 325/2/6
f 325/2/6 320/2/6 326/2/6
f 326/2/6 320/2/6 327/2/6
f 327/2/6 320/2/6 328/2/6
f 320/2/6 310/2/6 329/2/6
f 328/2/6 320/2/6 329/2/6
f 329/2/6 310/2/6 330/2/6
f 322/2/6 323/2/6 331/2/6
f 287/2/6 321/2/6 331/2/6
f 321/2/6 322/2/6 331/2/6
f 323/2/6 324/2/6 331/2/6
f 324/2/6 325/2/6 331/2/6
f 331/2/6 325/2/6 332/2/6
f 332/2/6 325/2/6 333/2/6
f 325/3/6 326/3/6 334/3/6
f 333/2/6 325/2/6 334/2/6
f 326/2/6 327/2/6 335/2/6
f 334/3/6 326/3/6 335/3/6
f 335/2/6 327/2/6 336/2/6
f 336/2/6 327/2/6 337/2/6
f 327/4/6 328/4/6 338/4/6
f 337/2/6 327/2/6 338/2/6
f 328/2/6 329/2/6 339/2/6
f 338/4/6 328/4/6 339/4/6
f 329/4/6 330/4/6 340/4/6
f 339/2/6 329/2/6 340/2/6
f 330/2/6 310/2/6 341/2/6
f 340/4/6 330/4/6 341/4/6
f 341/2/6 310/2/6 342/2/6
f 310/2/6 300/2/6 343/2/6
f 342/2/6 310/2/6 343/2/6
f 343/2/6 300/2/6 344/2/6
f 287/2/6 331/2/6 345/2/6
f 331/3/6 332/3/6 345/3/6
f 332/2/6 333/2/6 346/2/6
f 345/3/6 332/3/6 346/3/6
f 333/3/6 334/3/6 347/3/6
f 346/2/6 333/2/6 347/2/6
f 334/2/6 335/2/6 348/2/6
f 347/3/6 334/3/6 348/3/6
f 335/3/6 336/3/6 349/3/6
f 348/2/6 335/2/6 349/2/6
f 336/2/6 337/2/6 350/2/6
f 349/3/6 336/3/6 350/3/6
f 337/4/6 338/4/6 351/4/6
f 350/2/6 337/2/6 351/2/6
f 338/2/6 339/2/6 352/2/6
f 351/4/6 338/4/6 352/4/6
f 339/4/6 340/4/6 353/4/6
f 352/2/6 339/2/6 353/2/6
f 340/2/6 341/2/6 354/2/6
f 353/4/6 340/4/6 354/4/6
f 341/4/6 342/4/6 355/4/6
f 354/2/6 341/2/6 355/2/6
f 342/2/6 343/2/6 356/2/6
f 355/4/6 342/4/6 356/4/6
f 343/4/6 344/4/6 357/4/6
f 356/2/6 343/2/6 357/2/6
f 357/4/6 344/4/6 358/4/6
f 351/2/6 352/2/6 359/2/6
f 350/2/6 351/2/6 359/2/6
f 349/2/6 350/2/6 359/2/6
f 353/2/6 354/2/6 359/2/6
f 354/2/6 355/2/6 359/2/6
f 352/2/6 353/2/6 359/2/6
f 347/2/6 348/2/6 359/2/6
f 346/2/6 347/2/6 359/2/6
f 355/2/6 356/2/6 359/2/6
f 348/2/6 349/2/6 359/2/6
f 287/2/6 345/2/6 359/2/6
f 345/2/6 346/2/6 359/2/6
f 359/2/6 356/2/6 360/2/6
f 360/2/6 356/2/6 361/2/6
f 361/2/6 356/2/6 362/2/6
f 356/4/6 357/4/6 363/4/6
f 362/2/6 356/2/6 363/2/6
f 357/2/6 358/2/6 364/2/6
f 363/4/6 357/4/6 364/4/6
f 287/2/6 359/2/6 365/2/6
f 359/4/6 360/4/6 366/4/6
f 365/2/6 359/2/6 366/2/6
f 360/2/6 361/2/6 367/2/6
f 366/4/6 360/4/6 367/4/6
f 361/4/6 362/4/6 368/4/6
f 367/2/6 361/2/6 368/2/6
f 362/2/6 363/2/6 369/2/6
f 368/4/6 362/4/6 369/4/6
f 363/2/6 364/2/6 369/2/6
f 369/2/6 364/2/6 370/2/6
f 370/2/6 364/2/6 371/2/6
f 371/2/6 364/2/6 372/2/6
f 372/2/6 364/2/6 373/2/6
f 373/2/6 364/2/6 374/2/6
f 374/2/6 364/2/6 375/2/6
f 375/2/6 364/2/6 376/2/6
f 364/2/6 358/2/6 377/2/6
f 376/2/6 364/2/6 377/2/6
f 377/2/6 358/2/6 378/2/6
f 365/4/6 366/4/6 379/4/6
f 366/2/6 367/2/6 380/2/6
f 379/4/6 366/4/6 380/4/6
f 367/4/6 368/4/6 381/4/6
f 380/2/6 367/2/6 381/2/6
f 368/2/6 369/2/6 382/2/6
f 381/4/6 368/4/6 382/4/6
f 369/4/6 370/4/6 383/4/6
f 382/2/6 369/2/6 383/2/6
f 370/2/6 371/2/6 384/2/6
f 383/4/6 370/4/6 384/4/6
f 371/3/6 372/3/6 385/3/6
f 384/2/6 371/2/6 385/2/6
f 372/2/6 373/2/6 386/2/6
f 385/3/6 372/3/6 386/3/6
f 373/3/6 374/3/6 387/3/6
f 386/2/6 373/2/6 387/2/6
f 374/2/6 375/2/6 388/2/6
f 387/3/6 374/3/6 388/3/6
f 375/3/6 376/3/6 389/3/6
f 388/2/6 375/2/6 389/2/6
f 376/2/6 377/2/6 390/2/6
f 389/3/6 376/3/6 390/3/6
f 390/2/6 377/2/6 391/2/6
f 377/4/6 378/4/6 392/4/6
f 391/2/6 377/2/6 392/2/6
f 392/4/6 378/4/6 393/4/6
f 379/2/6 380/2/6 394/2/6
f 380/2/6 381/2/6 394/2/6
f 381/2/6 382/2/6 394/2/6
f 382/2/6 383/2/6 394/2/6
f 383/2/6 384/2/6 394/2/6
f 384/2/6 385/2/6 394/2/6
f 385/2/6 386/2/6 394/2/6
f 394/2/6 386/2/6 395/2/6
f 386/3/6 387/3/6 396/3/6
f 395/2/6 386/2/6 396/2/6
f 387/2/6 388/2/6 397/2/6
f 396/3/6 387/3/6 397/3/6
f 388/3/6 389/3/6 398/3/6
f 397/2/6 388/2/6 398/2/6
f 389/2/6 390/2/6 399/2/6
f 398/3/6 389/3/6 399/3/6
f 390/3/6 391/3/6 400/3/6
f 399/2/6 390/2/6 400/2/6
f 392/2/6 393/2/6 401/2/6
f 400/3/6 391/3/6 401/3/6
f 391/2/6 392/2/6 401/2/6
f 379/2/6 394/2/6 402/2/6
f 394/3/6 395/3/6 403/3/6
f 402/2/6 394/2/6 403/2/6
f 395/2/6 396/2/6 404/2/6
f 403/3/6 395/3/6 404/3/6
f 399/2/6 400/2/6 404/2/6
f 400/2/6 401/2/6 404/2/6
f 397/2/6 398/2/6 404/2/6
f 396/2/6 397/2/6 404/2/6
f 398/2/6 399/2/6 404/2/6
f 404/2/6 401/2/6 405/2/6
f 405/2/6 401/2/6 406/2/6
f 406/2/6 401/2/6 407/2/6
f 407/2/6 401/2/6 408/2/6
f 408/2/6 401/2/6 409/2/6
f 409/2/6 401/2/6 410/2/6
f 401/2/6 393/2/6 411/2/6
f 410/2/6 401/2/6 411/2/6
f 402/3/6 403/3/6 412/3/6
f 379/2/6 402/2/6 412/2/6
f 403/2/6 404/2/6 413/2/6
f 412/3/6 403/3/6 413/3/6
f 404/3/6 405/3/6 414/3/6
f 413/2/6 404/2/6 414/2/6
f 405/2/6 406/2/6 415/2/6
f 414/3/6 405/3/6 415/3/6
f 415/2/6 406/2/6 416/2/6
f 406/4/6 407/4/6 417/4/6
f 416/2/6 406/2/6 417/2/6
f 407/2/6 408/2/6 418/2/6
f 417/4/6 407/4/6 418/4/6
f 408/4/6 409/4/6 419/4/6
f 418/2/6 408/2/6 419/2/6
f 409/2/6 410/2/6 420/2/6
f 419/4/6 409/4/6 420/4/6
f 420/2/6 410/2/6 421/2/6
f 421/2/6 410/2/6 422/2/6
f 410/1/6 411/1/6 423/1/6
f 422/2/6 410/2/6 423/2/6
f 411/2/6 393/2/6 424/2/6
f 423/1/6 411/1/6 424/1/6
f 424/2/6 393/2/6 425/2/6
f 379/2/6 412/2/6 426/2/6
f 412/2/6 413/2/6 426/2/6
f 413/2/6 414/2/6 426/2/6
f 415/2/6 416/2/6 426/2/6
f 414/2/6 415/2/6 426/2/6
f 426/2/6 416/2/6 427/2/6
f 416/4/6 417/4/6 428/4/6
f 427/2/6 416/2/6 428/2/6
f 417/2/6 418/2/6 429/2/6
f 428/4/6 417/4/6 429/4/6
f 418/4/6 419/4/6 430/4/6
f 429/2/6 418/2/6 430/2/6
f 419/2/6 420/2/6 431/2/6
f 430/4/6 419/4/6 431/4/6
f 420/4/6 421/4/6 432/4/6
f 431/2/6 420/2/6 432/2/6
f 421/2/6 422/2/6 433/2/6
f 432/4/6 421/4/6 433/4/6
f 422/1/6 423/1/6 434/1/6
f 433/2/6 422/2/6 434/2/6
f 423/2/6 424/2/6 435/2/6
f 434/1/6 423/1/6 435/1/6
f 424/1/6 425/1/6 436/1/6
f 435/2/6 424/2/6 436/2/6
f 436/1/6 425/1/6 437/1/6
f 426/4/6 427/4/6 438/4/6
f 379/2/6 426/2/6 438/2/6
f 432/2/6 433/2/6 439/2/6
f 438/4/6 427/4/6 439/4/6
f 431/2/6 432/2/6 439/2/6
f 435/2/6 436/2/6 439/2/6
f 436/2/6 437/2/6 439/2/6
f 429/2/6 430/2/6 439/2/6
f 427/2/6 428/2/6 439/2/6
f 428/2/6 429/2/6 439/2/6
f 430/2/6 431/2/6 439/2/6
f 433/2/6 434/2/6 439/2/6
f 434/2/6 435/2/6 439/2/6
f 439/2/6 437/2/6 440/2/6
f 440/2/6 437/2/6 441/2/6
f 441/2/6 437/2/6 442/2/6
f 442/2/6 437/2/6 443/2/6
f 443/2/6 437/2/6 444/2/6
f 444/2/6 437/2/6 445/2/6
f 445/2/6 437/2/6 446/2/6
f 446/2/6 437/2/6 447/2/6
f 447/2/6 437/2/6 448/2/6
f 379/2/6 438/2/6 449/2/6
f 438/2/6 439/2/6 449/2/6
f 439/4/6 440/4/6 450/4/6
f 449/2/6 439/2/6 450/2/6
f 440/2/6 441/2/6 451/2/6
f 450/4/6 440/4/6 451/4/6
f 441/1/6 442/1/6 452/1/6
f 451/2/6 441/2/6 452/2/6
f 442/2/6 443/2/6 453/2/6
f 452/1/6 442/1/6 453/1/6
f 443/4/6 444/4/6 454/4/6
f 453/2/6 443/2/6 454/2/6
f 444/2/6 445/2/6 455/2/6
f 454/4/6 444/4/6 455/4/6
f 445/4/6 446/4/6 456/4/6
f 455/2/6 445/2/6 456/2/6
f 446/2/6 447/2/6 457/2/6
f 456/4/6 446/4/6 457/4/6
f 447/3/6 448/3/6 458/3/6
f 457/2/6 447/2/6 458/2/6
f 448/2/6 437/2/6 459/2/6
f 458/3/6 448/3/6 459/3/6
f 459/2/6 437/2/6 460/2/6
