# MagicaVoxel @ Ephtracy

# group
o 

# material
mtllib Water Ground Light 1.mtl
usemtl palette

# normals
vn -1 0 0
vn 1 0 0
vn 0 0 1
vn 0 0 -1
vn 0 -1 0
vn 0 1 0

# texcoords
vt 0.677734 0.5
vt 0.716797 0.5
vt 0.748047 0.5
vt 0.755859 0.5

# verts
v -0.8 0 0.8
v -0.8 0 0.4
v -0.8 0 0.3
v -0.8 0 -0.8
v -0.8 0.1 0.8
v -0.8 0.1 0.4
v -0.8 0.1 0.3
v -0.8 0.1 -0.8
v 0.8 0 0.8
v 0.8 0 0.7
v 0.8 0 0.2
v 0.8 0 0.1
v 0.8 0 -0.8
v 0.8 0.1 0.8
v 0.8 0.1 0.7
v 0.8 0.1 0.2
v 0.8 0.1 0.1
v 0.8 0.1 -0.8
v -0.8 0 0.8
v -0.8 0.1 0.8
v 0.2 0 0.8
v 0.2 0.1 0.8
v 0.3 0 0.8
v 0.3 0.1 0.8
v 0.7 0 0.8
v 0.7 0.1 0.8
v 0.8 0 0.8
v 0.8 0.1 0.8
v -0.8 0 -0.8
v -0.8 0.1 -0.8
v 0.8 0 -0.8
v 0.8 0.1 -0.8
v -0.8 0 0.8
v 0.2 0 0.8
v 0.3 0 0.8
v 0.7 0 0.8
v 0.8 0 0.8
v -0.6 0 0.7
v -0.4 0 0.7
v -0.3 0 0.7
v -0.2 0 0.7
v -0.1 0 0.7
v 0 0 0.7
v 0.2 0 0.7
v 0.3 0 0.7
v 0.6 0 0.7
v 0.7 0 0.7
v 0.8 0 0.7
v -0.7 0 0.6
v -0.6 0 0.6
v -0.4 0 0.6
v -0.3 0 0.6
v -0.2 0 0.6
v -0.1 0 0.6
v 0 0 0.6
v 0.4 0 0.6
v 0.5 0 0.6
v 0.6 0 0.6
v 0.7 0 0.6
v -0.7 0 0.5
v -0.6 0 0.5
v -0.4 0 0.5
v -0.3 0 0.5
v -0.2 0 0.5
v -0.1 0 0.5
v 0.1 0 0.5
v 0.2 0 0.5
v 0.3 0 0.5
v 0.4 0 0.5
v 0.5 0 0.5
v 0.6 0 0.5
v -0.8 0 0.4
v -0.7 0 0.4
v 0.1 0 0.4
v 0.2 0 0.4
v 0.3 0 0.4
v 0.4 0 0.4
v 0.5 0 0.4
v 0.6 0 0.4
v -0.8 0 0.3
v -0.7 0 0.3
v -0.5 0 0.3
v -0.4 0 0.3
v -0.6 0 0.2
v -0.5 0 0.2
v -0.4 0 0.2
v -0.3 0 0.2
v 0 0 0.2
v 0.1 0 0.2
v 0.2 0 0.2
v 0.3 0 0.2
v 0.5 0 0.2
v 0.6 0 0.2
v 0.7 0 0.2
v 0.8 0 0.2
v -0.6 0 0.1
v -0.5 0 0.1
v -0.4 0 0.1
v -0.3 0 0.1
v -0.1 0 0.1
v 0 0 0.1
v 0.1 0 0.1
v 0.2 0 0.1
v 0.3 0 0.1
v 0.4 0 0.1
v 0.5 0 0.1
v 0.6 0 0.1
v 0.7 0 0.1
v 0.8 0 0.1
v -0.1 0 0
v 0 0 0
v 0.1 0 0
v 0.2 0 0
v 0.3 0 0
v 0.4 0 0
v 0.6 0 0
v 0.7 0 0
v -0.7 0 -0.1
v -0.6 0 -0.1
v -0.5 0 -0.1
v -0.4 0 -0.1
v -0.3 0 -0.1
v -0.1 0 -0.1
v -0.7 0 -0.2
v -0.6 0 -0.2
v -0.5 0 -0.2
v -0.4 0 -0.2
v -0.3 0 -0.2
v -0.1 0 -0.2
v 0 0 -0.2
v 0.3 0 -0.2
v 0.4 0 -0.2
v 0.5 0 -0.2
v 0.6 0 -0.2
v -0.6 0 -0.3
v -0.5 0 -0.3
v -0.4 0 -0.3
v -0.3 0 -0.3
v -0.1 0 -0.3
v 0 0 -0.3
v 0.2 0 -0.3
v 0.3 0 -0.3
v 0.4 0 -0.3
v 0.5 0 -0.3
v 0.6 0 -0.3
v 0.7 0 -0.3
v 0.2 0 -0.4
v 0.3 0 -0.4
v 0.4 0 -0.4
v 0.5 0 -0.4
v 0.6 0 -0.4
v 0.7 0 -0.4
v -0.7 0 -0.5
v -0.6 0 -0.5
v -0.5 0 -0.5
v -0.3 0 -0.5
v 0.1 0 -0.5
v 0.3 0 -0.5
v 0.6 0 -0.5
v 0.7 0 -0.5
v -0.7 0 -0.6
v -0.6 0 -0.6
v -0.5 0 -0.6
v -0.3 0 -0.6
v -0.2 0 -0.6
v 0 0 -0.6
v 0.1 0 -0.6
v 0.3 0 -0.6
v 0.4 0 -0.6
v 0.5 0 -0.6
v 0.6 0 -0.6
v 0.7 0 -0.6
v -0.6 0 -0.7
v -0.5 0 -0.7
v -0.3 0 -0.7
v -0.2 0 -0.7
v 0 0 -0.7
v 0.1 0 -0.7
v 0.3 0 -0.7
v 0.4 0 -0.7
v 0.5 0 -0.7
v 0.6 0 -0.7
v -0.8 0 -0.8
v 0.8 0 -0.8
v -0.8 0.1 0.8
v 0.2 0.1 0.8
v 0.3 0.1 0.8
v 0.7 0.1 0.8
v 0.8 0.1 0.8
v -0.6 0.1 0.7
v -0.4 0.1 0.7
v -0.3 0.1 0.7
v -0.2 0.1 0.7
v -0.1 0.1 0.7
v 0 0.1 0.7
v 0.2 0.1 0.7
v 0.3 0.1 0.7
v 0.6 0.1 0.7
v 0.7 0.1 0.7
v 0.8 0.1 0.7
v -0.7 0.1 0.6
v -0.6 0.1 0.6
v -0.4 0.1 0.6
v -0.3 0.1 0.6
v -0.2 0.1 0.6
v -0.1 0.1 0.6
v 0 0.1 0.6
v 0.4 0.1 0.6
v 0.5 0.1 0.6
v 0.6 0.1 0.6
v 0.7 0.1 0.6
v -0.7 0.1 0.5
v -0.6 0.1 0.5
v -0.4 0.1 0.5
v -0.3 0.1 0.5
v -0.2 0.1 0.5
v -0.1 0.1 0.5
v 0.1 0.1 0.5
v 0.2 0.1 0.5
v 0.3 0.1 0.5
v 0.4 0.1 0.5
v 0.5 0.1 0.5
v 0.6 0.1 0.5
v -0.8 0.1 0.4
v -0.7 0.1 0.4
v 0.1 0.1 0.4
v 0.2 0.1 0.4
v 0.3 0.1 0.4
v 0.4 0.1 0.4
v 0.5 0.1 0.4
v 0.6 0.1 0.4
v -0.8 0.1 0.3
v -0.7 0.1 0.3
v -0.5 0.1 0.3
v -0.4 0.1 0.3
v -0.6 0.1 0.2
v -0.5 0.1 0.2
v -0.4 0.1 0.2
v -0.3 0.1 0.2
v 0 0.1 0.2
v 0.1 0.1 0.2
v 0.2 0.1 0.2
v 0.3 0.1 0.2
v 0.5 0.1 0.2
v 0.6 0.1 0.2
v 0.7 0.1 0.2
v 0.8 0.1 0.2
v -0.6 0.1 0.1
v -0.5 0.1 0.1
v -0.4 0.1 0.1
v -0.3 0.1 0.1
v -0.1 0.1 0.1
v 0 0.1 0.1
v 0.1 0.1 0.1
v 0.2 0.1 0.1
v 0.3 0.1 0.1
v 0.4 0.1 0.1
v 0.5 0.1 0.1
v 0.6 0.1 0.1
v 0.7 0.1 0.1
v 0.8 0.1 0.1
v -0.1 0.1 0
v 0 0.1 0
v 0.1 0.1 0
v 0.2 0.1 0
v 0.3 0.1 0
v 0.4 0.1 0
v 0.6 0.1 0
v 0.7 0.1 0
v -0.7 0.1 -0.1
v -0.6 0.1 -0.1
v -0.5 0.1 -0.1
v -0.4 0.1 -0.1
v -0.3 0.1 -0.1
v -0.1 0.1 -0.1
v -0.7 0.1 -0.2
v -0.6 0.1 -0.2
v -0.5 0.1 -0.2
v -0.4 0.1 -0.2
v -0.3 0.1 -0.2
v -0.1 0.1 -0.2
v 0 0.1 -0.2
v 0.3 0.1 -0.2
v 0.4 0.1 -0.2
v 0.5 0.1 -0.2
v 0.6 0.1 -0.2
v -0.6 0.1 -0.3
v -0.5 0.1 -0.3
v -0.4 0.1 -0.3
v -0.3 0.1 -0.3
v -0.1 0.1 -0.3
v 0 0.1 -0.3
v 0.2 0.1 -0.3
v 0.3 0.1 -0.3
v 0.4 0.1 -0.3
v 0.5 0.1 -0.3
v 0.6 0.1 -0.3
v 0.7 0.1 -0.3
v 0.2 0.1 -0.4
v 0.3 0.1 -0.4
v 0.4 0.1 -0.4
v 0.5 0.1 -0.4
v 0.6 0.1 -0.4
v 0.7 0.1 -0.4
v -0.7 0.1 -0.5
v -0.6 0.1 -0.5
v -0.5 0.1 -0.5
v -0.3 0.1 -0.5
v 0.1 0.1 -0.5
v 0.3 0.1 -0.5
v 0.6 0.1 -0.5
v 0.7 0.1 -0.5
v -0.7 0.1 -0.6
v -0.6 0.1 -0.6
v -0.5 0.1 -0.6
v -0.3 0.1 -0.6
v -0.2 0.1 -0.6
v 0 0.1 -0.6
v 0.1 0.1 -0.6
v 0.3 0.1 -0.6
v 0.4 0.1 -0.6
v 0.5 0.1 -0.6
v 0.6 0.1 -0.6
v 0.7 0.1 -0.6
v -0.6 0.1 -0.7
v -0.5 0.1 -0.7
v -0.3 0.1 -0.7
v -0.2 0.1 -0.7
v 0 0.1 -0.7
v 0.1 0.1 -0.7
v 0.3 0.1 -0.7
v 0.4 0.1 -0.7
v 0.5 0.1 -0.7
v 0.6 0.1 -0.7
v -0.8 0.1 -0.8
v 0.8 0.1 -0.8

# faces
f 5/2/1 2/2/1 1/2/1
f 6/4/1 3/4/1 2/4/1
f 6/2/1 2/2/1 5/2/1
f 7/2/1 4/2/1 3/2/1
f 7/4/1 3/4/1 6/4/1
f 8/2/1 4/2/1 7/2/1
f 9/4/2 10/4/2 14/4/2
f 10/2/2 11/2/2 15/2/2
f 14/4/2 10/4/2 15/4/2
f 11/4/2 12/4/2 16/4/2
f 15/2/2 11/2/2 16/2/2
f 12/2/2 13/2/2 17/2/2
f 16/4/2 12/4/2 17/4/2
f 17/2/2 13/2/2 18/2/2
f 21/2/3 20/2/3 19/2/3
f 22/2/3 20/2/3 21/2/3
f 23/1/3 22/1/3 21/1/3
f 24/1/3 22/1/3 23/1/3
f 25/2/3 24/2/3 23/2/3
f 26/2/3 24/2/3 25/2/3
f 27/4/3 26/4/3 25/4/3
f 28/4/3 26/4/3 27/4/3
f 29/2/4 30/2/4 31/2/4
f 31/2/4 30/2/4 32/2/4
f 38/2/5 34/2/5 33/2/5
f 39/2/5 34/2/5 38/2/5
f 40/2/5 34/2/5 39/2/5
f 41/2/5 34/2/5 40/2/5
f 42/2/5 34/2/5 41/2/5
f 43/2/5 34/2/5 42/2/5
f 44/1/5 35/1/5 34/1/5
f 44/2/5 34/2/5 43/2/5
f 45/2/5 36/2/5 35/2/5
f 45/1/5 35/1/5 44/1/5
f 46/2/5 36/2/5 45/2/5
f 47/4/5 37/4/5 36/4/5
f 47/2/5 36/2/5 46/2/5
f 48/4/5 37/4/5 47/4/5
f 49/2/5 38/2/5 33/2/5
f 50/4/5 39/4/5 38/4/5
f 50/2/5 38/2/5 49/2/5
f 51/2/5 40/2/5 39/2/5
f 51/4/5 39/4/5 50/4/5
f 52/4/5 41/4/5 40/4/5
f 52/2/5 40/2/5 51/2/5
f 53/2/5 42/2/5 41/2/5
f 53/4/5 41/4/5 52/4/5
f 54/4/5 43/4/5 42/4/5
f 54/2/5 42/2/5 53/2/5
f 55/2/5 46/2/5 45/2/5
f 55/4/5 43/4/5 54/4/5
f 55/2/5 44/2/5 43/2/5
f 55/2/5 45/2/5 44/2/5
f 56/2/5 46/2/5 55/2/5
f 57/2/5 46/2/5 56/2/5
f 58/4/5 47/4/5 46/4/5
f 58/2/5 46/2/5 57/2/5
f 59/2/5 48/2/5 47/2/5
f 59/4/5 47/4/5 58/4/5
f 60/2/5 49/2/5 33/2/5
f 60/4/5 50/4/5 49/4/5
f 61/2/5 51/2/5 50/2/5
f 61/4/5 50/4/5 60/4/5
f 62/4/5 52/4/5 51/4/5
f 62/2/5 51/2/5 61/2/5
f 63/2/5 53/2/5 52/2/5
f 63/4/5 52/4/5 62/4/5
f 64/4/5 54/4/5 53/4/5
f 64/2/5 53/2/5 63/2/5
f 65/2/5 55/2/5 54/2/5
f 65/4/5 54/4/5 64/4/5
f 65/2/5 56/2/5 55/2/5
f 66/2/5 56/2/5 65/2/5
f 67/2/5 56/2/5 66/2/5
f 68/2/5 56/2/5 67/2/5
f 69/3/5 57/3/5 56/3/5
f 69/2/5 56/2/5 68/2/5
f 70/2/5 58/2/5 57/2/5
f 70/3/5 57/3/5 69/3/5
f 70/2/5 59/2/5 58/2/5
f 71/2/5 59/2/5 70/2/5
f 72/2/5 63/2/5 62/2/5
f 72/2/5 62/2/5 61/2/5
f 72/2/5 60/2/5 33/2/5
f 72/2/5 61/2/5 60/2/5
f 72/2/5 66/2/5 65/2/5
f 72/2/5 65/2/5 64/2/5
f 72/2/5 64/2/5 63/2/5
f 73/2/5 66/2/5 72/2/5
f 74/4/5 67/4/5 66/4/5
f 74/2/5 66/2/5 73/2/5
f 75/2/5 68/2/5 67/2/5
f 75/4/5 67/4/5 74/4/5
f 76/3/5 69/3/5 68/3/5
f 76/2/5 68/2/5 75/2/5
f 77/2/5 70/2/5 69/2/5
f 77/3/5 69/3/5 76/3/5
f 78/3/5 71/3/5 70/3/5
f 78/2/5 70/2/5 77/2/5
f 79/2/5 59/2/5 71/2/5
f 79/3/5 71/3/5 78/3/5
f 80/4/5 73/4/5 72/4/5
f 81/2/5 78/2/5 77/2/5
f 81/4/5 73/4/5 80/4/5
f 81/2/5 77/2/5 76/2/5
f 81/2/5 79/2/5 78/2/5
f 81/2/5 75/2/5 74/2/5
f 81/2/5 74/2/5 73/2/5
f 81/2/5 76/2/5 75/2/5
f 82/2/5 79/2/5 81/2/5
f 83/2/5 79/2/5 82/2/5
f 84/2/5 81/2/5 80/2/5
f 84/2/5 82/2/5 81/2/5
f 85/3/5 83/3/5 82/3/5
f 85/2/5 82/2/5 84/2/5
f 86/2/5 79/2/5 83/2/5
f 86/3/5 83/3/5 85/3/5
f 87/2/5 79/2/5 86/2/5
f 88/2/5 79/2/5 87/2/5
f 89/2/5 79/2/5 88/2/5
f 90/2/5 79/2/5 89/2/5
f 91/2/5 79/2/5 90/2/5
f 92/2/5 79/2/5 91/2/5
f 93/2/5 59/2/5 79/2/5
f 93/2/5 79/2/5 92/2/5
f 94/2/5 48/2/5 59/2/5
f 94/2/5 59/2/5 93/2/5
f 95/2/5 48/2/5 94/2/5
f 96/3/5 85/3/5 84/3/5
f 96/2/5 84/2/5 80/2/5
f 97/2/5 86/2/5 85/2/5
f 97/3/5 85/3/5 96/3/5
f 98/3/5 87/3/5 86/3/5
f 98/2/5 86/2/5 97/2/5
f 99/2/5 88/2/5 87/2/5
f 99/3/5 87/3/5 98/3/5
f 100/2/5 88/2/5 99/2/5
f 101/4/5 89/4/5 88/4/5
f 101/2/5 88/2/5 100/2/5
f 102/2/5 90/2/5 89/2/5
f 102/4/5 89/4/5 101/4/5
f 103/4/5 91/4/5 90/4/5
f 103/2/5 90/2/5 102/2/5
f 104/2/5 92/2/5 91/2/5
f 104/4/5 91/4/5 103/4/5
f 105/2/5 92/2/5 104/2/5
f 106/4/5 93/4/5 92/4/5
f 106/2/5 92/2/5 105/2/5
f 107/2/5 94/2/5 93/2/5
f 107/4/5 93/4/5 106/4/5
f 108/4/5 95/4/5 94/4/5
f 108/2/5 94/2/5 107/2/5
f 109/4/5 95/4/5 108/4/5
f 110/2/5 97/2/5 96/2/5
f 110/2/5 98/2/5 97/2/5
f 110/2/5 100/2/5 99/2/5
f 110/4/5 101/4/5 100/4/5
f 110/2/5 99/2/5 98/2/5
f 111/2/5 102/2/5 101/2/5
f 111/4/5 101/4/5 110/4/5
f 112/4/5 103/4/5 102/4/5
f 112/2/5 102/2/5 111/2/5
f 113/2/5 104/2/5 103/2/5
f 113/4/5 103/4/5 112/4/5
f 114/4/5 105/4/5 104/4/5
f 114/2/5 104/2/5 113/2/5
f 115/2/5 107/2/5 106/2/5
f 115/4/5 105/4/5 114/4/5
f 115/2/5 106/2/5 105/2/5
f 116/4/5 108/4/5 107/4/5
f 116/2/5 107/2/5 115/2/5
f 117/2/5 109/2/5 108/2/5
f 117/4/5 108/4/5 116/4/5
f 118/2/5 111/2/5 110/2/5
f 118/2/5 113/2/5 112/2/5
f 118/2/5 117/2/5 116/2/5
f 118/2/5 110/2/5 96/2/5
f 118/2/5 112/2/5 111/2/5
f 118/2/5 115/2/5 114/2/5
f 118/2/5 116/2/5 115/2/5
f 118/2/5 114/2/5 113/2/5
f 118/2/5 96/2/5 80/2/5
f 119/2/5 117/2/5 118/2/5
f 120/2/5 117/2/5 119/2/5
f 121/2/5 117/2/5 120/2/5
f 122/2/5 117/2/5 121/2/5
f 123/2/5 117/2/5 122/2/5
f 124/2/5 118/2/5 80/2/5
f 124/4/5 119/4/5 118/4/5
f 125/2/5 120/2/5 119/2/5
f 125/4/5 119/4/5 124/4/5
f 126/4/5 121/4/5 120/4/5
f 126/2/5 120/2/5 125/2/5
f 127/2/5 122/2/5 121/2/5
f 127/4/5 121/4/5 126/4/5
f 128/4/5 123/4/5 122/4/5
f 128/2/5 122/2/5 127/2/5
f 129/2/5 117/2/5 123/2/5
f 129/4/5 123/4/5 128/4/5
f 130/2/5 117/2/5 129/2/5
f 131/2/5 117/2/5 130/2/5
f 132/2/5 117/2/5 131/2/5
f 133/2/5 117/2/5 132/2/5
f 134/2/5 117/2/5 133/2/5
f 135/2/5 125/2/5 124/2/5
f 135/4/5 126/4/5 125/4/5
f 136/2/5 127/2/5 126/2/5
f 136/4/5 126/4/5 135/4/5
f 137/4/5 128/4/5 127/4/5
f 137/2/5 127/2/5 136/2/5
f 138/2/5 129/2/5 128/2/5
f 138/4/5 128/4/5 137/4/5
f 139/4/5 130/4/5 129/4/5
f 139/2/5 129/2/5 138/2/5
f 140/2/5 131/2/5 130/2/5
f 140/4/5 130/4/5 139/4/5
f 141/2/5 131/2/5 140/2/5
f 142/1/5 132/1/5 131/1/5
f 142/2/5 131/2/5 141/2/5
f 143/2/5 133/2/5 132/2/5
f 143/1/5 132/1/5 142/1/5
f 144/1/5 134/1/5 133/1/5
f 144/2/5 133/2/5 143/2/5
f 145/2/5 117/2/5 134/2/5
f 145/1/5 134/1/5 144/1/5
f 146/2/5 109/2/5 117/2/5
f 146/2/5 117/2/5 145/2/5
f 147/2/5 136/2/5 135/2/5
f 147/2/5 137/2/5 136/2/5
f 147/2/5 138/2/5 137/2/5
f 147/2/5 140/2/5 139/2/5
f 147/1/5 142/1/5 141/1/5
f 147/2/5 141/2/5 140/2/5
f 147/2/5 139/2/5 138/2/5
f 148/2/5 143/2/5 142/2/5
f 148/1/5 142/1/5 147/1/5
f 149/1/5 144/1/5 143/1/5
f 149/2/5 143/2/5 148/2/5
f 150/2/5 145/2/5 144/2/5
f 150/1/5 144/1/5 149/1/5
f 151/1/5 146/1/5 145/1/5
f 151/2/5 145/2/5 150/2/5
f 152/2/5 109/2/5 146/2/5
f 152/1/5 146/1/5 151/1/5
f 153/2/5 149/2/5 148/2/5
f 153/2/5 151/2/5 150/2/5
f 153/2/5 152/2/5 151/2/5
f 153/2/5 150/2/5 149/2/5
f 153/2/5 147/2/5 135/2/5
f 153/2/5 148/2/5 147/2/5
f 153/2/5 124/2/5 80/2/5
f 153/2/5 135/2/5 124/2/5
f 154/2/5 152/2/5 153/2/5
f 155/2/5 152/2/5 154/2/5
f 156/2/5 152/2/5 155/2/5
f 157/2/5 152/2/5 156/2/5
f 158/2/5 152/2/5 157/2/5
f 159/2/5 152/2/5 158/2/5
f 160/2/5 109/2/5 152/2/5
f 160/2/5 152/2/5 159/2/5
f 161/2/5 153/2/5 80/2/5
f 161/3/5 154/3/5 153/3/5
f 162/2/5 155/2/5 154/2/5
f 162/3/5 154/3/5 161/3/5
f 163/3/5 156/3/5 155/3/5
f 163/2/5 155/2/5 162/2/5
f 164/2/5 157/2/5 156/2/5
f 164/3/5 156/3/5 163/3/5
f 165/2/5 157/2/5 164/2/5
f 166/2/5 157/2/5 165/2/5
f 167/4/5 158/4/5 157/4/5
f 167/2/5 157/2/5 166/2/5
f 168/2/5 159/2/5 158/2/5
f 168/4/5 158/4/5 167/4/5
f 169/2/5 159/2/5 168/2/5
f 170/2/5 159/2/5 169/2/5
f 171/4/5 160/4/5 159/4/5
f 171/2/5 159/2/5 170/2/5
f 172/2/5 109/2/5 160/2/5
f 172/4/5 160/4/5 171/4/5
f 173/2/5 162/2/5 161/2/5
f 173/3/5 163/3/5 162/3/5
f 174/2/5 164/2/5 163/2/5
f 174/3/5 163/3/5 173/3/5
f 175/3/5 165/3/5 164/3/5
f 175/2/5 164/2/5 174/2/5
f 176/2/5 166/2/5 165/2/5
f 176/3/5 165/3/5 175/3/5
f 177/4/5 167/4/5 166/4/5
f 177/2/5 166/2/5 176/2/5
f 178/2/5 168/2/5 167/2/5
f 178/4/5 167/4/5 177/4/5
f 179/4/5 169/4/5 168/4/5
f 179/2/5 168/2/5 178/2/5
f 180/2/5 170/2/5 169/2/5
f 180/4/5 169/4/5 179/4/5
f 181/4/5 171/4/5 170/4/5
f 181/2/5 170/2/5 180/2/5
f 182/2/5 172/2/5 171/2/5
f 182/4/5 171/4/5 181/4/5
f 183/2/5 176/2/5 175/2/5
f 183/2/5 180/2/5 179/2/5
f 183/2/5 182/2/5 181/2/5
f 183/2/5 178/2/5 177/2/5
f 183/2/5 177/2/5 176/2/5
f 183/2/5 174/2/5 173/2/5
f 183/2/5 173/2/5 161/2/5
f 183/2/5 175/2/5 174/2/5
f 183/2/5 181/2/5 180/2/5
f 183/2/5 179/2/5 178/2/5
f 183/2/5 161/2/5 80/2/5
f 184/2/5 172/2/5 182/2/5
f 184/2/5 182/2/5 183/2/5
f 184/2/5 109/2/5 172/2/5
f 185/2/6 186/2/6 190/2/6
f 190/2/6 186/2/6 191/2/6
f 191/2/6 186/2/6 192/2/6
f 192/2/6 186/2/6 193/2/6
f 193/2/6 186/2/6 194/2/6
f 194/2/6 186/2/6 195/2/6
f 186/1/6 187/1/6 196/1/6
f 195/2/6 186/2/6 196/2/6
f 187/2/6 188/2/6 197/2/6
f 196/1/6 187/1/6 197/1/6
f 197/2/6 188/2/6 198/2/6
f 188/4/6 189/4/6 199/4/6
f 198/2/6 188/2/6 199/2/6
f 199/4/6 189/4/6 200/4/6
f 185/2/6 190/2/6 201/2/6
f 190/4/6 191/4/6 202/4/6
f 201/2/6 190/2/6 202/2/6
f 191/2/6 192/2/6 203/2/6
f 202/4/6 191/4/6 203/4/6
f 192/4/6 193/4/6 204/4/6
f 203/2/6 192/2/6 204/2/6
f 193/2/6 194/2/6 205/2/6
f 204/4/6 193/4/6 205/4/6
f 194/4/6 195/4/6 206/4/6
f 205/2/6 194/2/6 206/2/6
f 197/2/6 198/2/6 207/2/6
f 206/4/6 195/4/6 207/4/6
f 195/2/6 196/2/6 207/2/6
f 196/2/6 197/2/6 207/2/6
f 207/2/6 198/2/6 208/2/6
f 208/2/6 198/2/6 209/2/6
f 198/4/6 199/4/6 210/4/6
f 209/2/6 198/2/6 210/2/6
f 199/2/6 200/2/6 211/2/6
f 210/4/6 199/4/6 211/4/6
f 185/2/6 201/2/6 212/2/6
f 201/4/6 202/4/6 212/4/6
f 202/2/6 203/2/6 213/2/6
f 212/4/6 202/4/6 213/4/6
f 203/4/6 204/4/6 214/4/6
f 213/2/6 203/2/6 214/2/6
f 204/2/6 205/2/6 215/2/6
f 214/4/6 204/4/6 215/4/6
f 205/4/6 206/4/6 216/4/6
f 215/2/6 205/2/6 216/2/6
f 206/2/6 207/2/6 217/2/6
f 216/4/6 206/4/6 217/4/6
f 207/2/6 208/2/6 217/2/6
f 217/2/6 208/2/6 218/2/6
f 218/2/6 208/2/6 219/2/6
f 219/2/6 208/2/6 220/2/6
f 208/3/6 209/3/6 221/3/6
f 220/2/6 208/2/6 221/2/6
f 209/2/6 210/2/6 222/2/6
f 221/3/6 209/3/6 222/3/6
f 210/2/6 211/2/6 222/2/6
f 222/2/6 211/2/6 223/2/6
f 214/2/6 215/2/6 224/2/6
f 213/2/6 214/2/6 224/2/6
f 185/2/6 212/2/6 224/2/6
f 212/2/6 213/2/6 224/2/6
f 217/2/6 218/2/6 224/2/6
f 216/2/6 217/2/6 224/2/6
f 215/2/6 216/2/6 224/2/6
f 224/2/6 218/2/6 225/2/6
f 218/4/6 219/4/6 226/4/6
f 225/2/6 218/2/6 226/2/6
f 219/2/6 220/2/6 227/2/6
f 226/4/6 219/4/6 227/4/6
f 220/3/6 221/3/6 228/3/6
f 227/2/6 220/2/6 228/2/6
f 221/2/6 222/2/6 229/2/6
f 228/3/6 221/3/6 229/3/6
f 222/3/6 223/3/6 230/3/6
f 229/2/6 222/2/6 230/2/6
f 223/2/6 211/2/6 231/2/6
f 230/3/6 223/3/6 231/3/6
f 224/4/6 225/4/6 232/4/6
f 229/2/6 230/2/6 233/2/6
f 232/4/6 225/4/6 233/4/6
f 228/2/6 229/2/6 233/2/6
f 230/2/6 231/2/6 233/2/6
f 226/2/6 227/2/6 233/2/6
f 225/2/6 226/2/6 233/2/6
f 227/2/6 228/2/6 233/2/6
f 233/2/6 231/2/6 234/2/6
f 234/2/6 231/2/6 235/2/6
f 232/2/6 233/2/6 236/2/6
f 233/2/6 234/2/6 236/2/6
f 234/3/6 235/3/6 237/3/6
f 236/2/6 234/2/6 237/2/6
f 235/2/6 231/2/6 238/2/6
f 237/3/6 235/3/6 238/3/6
f 238/2/6 231/2/6 239/2/6
f 239/2/6 231/2/6 240/2/6
f 240/2/6 231/2/6 241/2/6
f 241/2/6 231/2/6 242/2/6
f 242/2/6 231/2/6 243/2/6
f 243/2/6 231/2/6 244/2/6
f 231/2/6 211/2/6 245/2/6
f 244/2/6 231/2/6 245/2/6
f 211/2/6 200/2/6 246/2/6
f 245/2/6 211/2/6 246/2/6
f 246/2/6 200/2/6 247/2/6
f 236/3/6 237/3/6 248/3/6
f 232/2/6 236/2/6 248/2/6
f 237/2/6 238/2/6 249/2/6
f 248/3/6 237/3/6 249/3/6
f 238/3/6 239/3/6 250/3/6
f 249/2/6 238/2/6 250/2/6
f 239/2/6 240/2/6 251/2/6
f 250/3/6 239/3/6 251/3/6
f 251/2/6 240/2/6 252/2/6
f 240/4/6 241/4/6 253/4/6
f 252/2/6 240/2/6 253/2/6
f 241/2/6 242/2/6 254/2/6
f 253/4/6 241/4/6 254/4/6
f 242/4/6 243/4/6 255/4/6
f 254/2/6 242/2/6 255/2/6
f 243/2/6 244/2/6 256/2/6
f 255/4/6 243/4/6 256/4/6
f 256/2/6 244/2/6 257/2/6
f 244/4/6 245/4/6 258/4/6
f 257/2/6 244/2/6 258/2/6
f 245/2/6 246/2/6 259/2/6
f 258/4/6 245/4/6 259/4/6
f 246/4/6 247/4/6 260/4/6
f 259/2/6 246/2/6 260/2/6
f 260/4/6 247/4/6 261/4/6
f 248/2/6 249/2/6 262/2/6
f 249/2/6 250/2/6 262/2/6
f 251/2/6 252/2/6 262/2/6
f 252/4/6 253/4/6 262/4/6
f 250/2/6 251/2/6 262/2/6
f 253/2/6 254/2/6 263/2/6
f 262/4/6 253/4/6 263/4/6
f 254/4/6 255/4/6 264/4/6
f 263/2/6 254/2/6 264/2/6
f 255/2/6 256/2/6 265/2/6
f 264/4/6 255/4/6 265/4/6
f 256/4/6 257/4/6 266/4/6
f 265/2/6 256/2/6 266/2/6
f 258/2/6 259/2/6 267/2/6
f 266/4/6 257/4/6 267/4/6
f 257/2/6 258/2/6 267/2/6
f 259/4/6 260/4/6 268/4/6
f 267/2/6 259/2/6 268/2/6
f 260/2/6 261/2/6 269/2/6
f 268/4/6 260/4/6 269/4/6
f 262/2/6 263/2/6 270/2/6
f 264/2/6 265/2/6 270/2/6
f 268/2/6 269/2/6 270/2/6
f 248/2/6 262/2/6 270/2/6
f 263/2/6 264/2/6 270/2/6
f 266/2/6 267/2/6 270/2/6
f 267/2/6 268/2/6 270/2/6
f 265/2/6 266/2/6 270/2/6
f 232/2/6 248/2/6 270/2/6
f 270/2/6 269/2/6 271/2/6
f 271/2/6 269/2/6 272/2/6
f 272/2/6 269/2/6 273/2/6
f 273/2/6 269/2/6 274/2/6
f 274/2/6 269/2/6 275/2/6
f 232/2/6 270/2/6 276/2/6
f 270/4/6 271/4/6 276/4/6
f 271/2/6 272/2/6 277/2/6
f 276/4/6 271/4/6 277/4/6
f 272/4/6 273/4/6 278/4/6
f 277/2/6 272/2/6 278/2/6
f 273/2/6 274/2/6 279/2/6
f 278/4/6 273/4/6 279/4/6
f 274/4/6 275/4/6 280/4/6
f 279/2/6 274/2/6 280/2/6
f 275/2/6 269/2/6 281/2/6
f 280/4/6 275/4/6 281/4/6
f 281/2/6 269/2/6 282/2/6
f 282/2/6 269/2/6 283/2/6
f 283/2/6 269/2/6 284/2/6
f 284/2/6 269/2/6 285/2/6
f 285/2/6 269/2/6 286/2/6
f 276/2/6 277/2/6 287/2/6
f 277/4/6 278/4/6 287/4/6
f 278/2/6 279/2/6 288/2/6
f 287/4/6 278/4/6 288/4/6
f 279/4/6 280/4/6 289/4/6
f 288/2/6 279/2/6 289/2/6
f 280/2/6 281/2/6 290/2/6
f 289/4/6 280/4/6 290/4/6
f 281/4/6 282/4/6 291/4/6
f 290/2/6 281/2/6 291/2/6
f 282/2/6 283/2/6 292/2/6
f 291/4/6 282/4/6 292/4/6
f 292/2/6 283/2/6 293/2/6
f 283/1/6 284/1/6 294/1/6
f 293/2/6 283/2/6 294/2/6
f 284/2/6 285/2/6 295/2/6
f 294/1/6 284/1/6 295/1/6
f 285/1/6 286/1/6 296/1/6
f 295/2/6 285/2/6 296/2/6
f 286/2/6 269/2/6 297/2/6
f 296/1/6 286/1/6 297/1/6
f 269/2/6 261/2/6 298/2/6
f 297/2/6 269/2/6 298/2/6
f 287/2/6 288/2/6 299/2/6
f 288/2/6 289/2/6 299/2/6
f 289/2/6 290/2/6 299/2/6
f 291/2/6 292/2/6 299/2/6
f 293/1/6 294/1/6 299/1/6
f 292/2/6 293/2/6 299/2/6
f 290/2/6 291/2/6 299/2/6
f 294/2/6 295/2/6 300/2/6
f 299/1/6 294/1/6 300/1/6
f 295/1/6 296/1/6 301/1/6
f 300/2/6 295/2/6 301/2/6
f 296/2/6 297/2/6 302/2/6
f 301/1/6 296/1/6 302/1/6
f 297/1/6 298/1/6 303/1/6
f 302/2/6 297/2/6 303/2/6
f 298/2/6 261/2/6 304/2/6
f 303/1/6 298/1/6 304/1/6
f 300/2/6 301/2/6 305/2/6
f 302/2/6 303/2/6 305/2/6
f 303/2/6 304/2/6 305/2/6
f 301/2/6 302/2/6 305/2/6
f 287/2/6 299/2/6 305/2/6
f 299/2/6 300/2/6 305/2/6
f 232/2/6 276/2/6 305/2/6
f 276/2/6 287/2/6 305/2/6
f 305/2/6 304/2/6 306/2/6
f 306/2/6 304/2/6 307/2/6
f 307/2/6 304/2/6 308/2/6
f 308/2/6 304/2/6 309/2/6
f 309/2/6 304/2/6 310/2/6
f 310/2/6 304/2/6 311/2/6
f 304/2/6 261/2/6 312/2/6
f 311/2/6 304/2/6 312/2/6
f 232/2/6 305/2/6 313/2/6
f 305/3/6 306/3/6 313/3/6
f 306/2/6 307/2/6 314/2/6
f 313/3/6 306/3/6 314/3/6
f 307/3/6 308/3/6 315/3/6
f 314/2/6 307/2/6 315/2/6
f 308/2/6 309/2/6 316/2/6
f 315/3/6 308/3/6 316/3/6
f 316/2/6 309/2/6 317/2/6
f 317/2/6 309/2/6 318/2/6
f 309/4/6 310/4/6 319/4/6
f 318/2/6 309/2/6 319/2/6
f 310/2/6 311/2/6 320/2/6
f 319/4/6 310/4/6 320/4/6
f 320/2/6 311/2/6 321/2/6
f 321/2/6 311/2/6 322/2/6
f 311/4/6 312/4/6 323/4/6
f 322/2/6 311/2/6 323/2/6
f 312/2/6 261/2/6 324/2/6
f 323/4/6 312/4/6 324/4/6
f 313/2/6 314/2/6 325/2/6
f 314/3/6 315/3/6 325/3/6
f 315/2/6 316/2/6 326/2/6
f 325/3/6 315/3/6 326/3/6
f 316/3/6 317/3/6 327/3/6
f 326/2/6 316/2/6 327/2/6
f 317/2/6 318/2/6 328/2/6
f 327/3/6 317/3/6 328/3/6
f 318/4/6 319/4/6 329/4/6
f 328/2/6 318/2/6 329/2/6
f 319/2/6 320/2/6 330/2/6
f 329/4/6 319/4/6 330/4/6
f 320/4/6 321/4/6 331/4/6
f 330/2/6 320/2/6 331/2/6
f 321/2/6 322/2/6 332/2/6
f 331/4/6 321/4/6 332/4/6
f 322/4/6 323/4/6 333/4/6
f 332/2/6 322/2/6 333/2/6
f 323/2/6 324/2/6 334/2/6
f 333/4/6 323/4/6 334/4/6
f 327/2/6 328/2/6 335/2/6
f 331/2/6 332/2/6 335/2/6
f 333/2/6 334/2/6 335/2/6
f 329/2/6 330/2/6 335/2/6
f 328/2/6 329/2/6 335/2/6
f 325/2/6 326/2/6 335/2/6
f 313/2/6 325/2/6 335/2/6
f 326/2/6 327/2/6 335/2/6
f 332/2/6 333/2/6 335/2/6
f 330/2/6 331/2/6 335/2/6
f 232/2/6 313/2/6 335/2/6
f 334/2/6 324/2/6 336/2/6
f 335/2/6 334/2/6 336/2/6
f 324/2/6 261/2/6 336/2/6
